Date,Open,High,Low,Close,Adj Close,Volume
2015-02-13,23.156565,23.825758,23.148148,23.766834,23.413204,24438100
2015-02-17,23.640572,23.762627,23.489058,23.745790,23.392469,17697300
2015-02-18,23.733166,23.985691,23.699495,23.947811,23.591484,14064700
2015-02-19,23.977272,24.284512,23.750000,24.263468,23.902445,18514200
2015-02-20,24.271885,24.431818,24.099327,24.419191,24.055853,16655000
2015-02-23,24.343435,24.663300,24.301348,24.440235,24.076584,19293800
2015-02-24,24.440235,24.638046,24.356060,24.579124,24.213408,11979300
2015-02-25,24.638046,24.663300,24.398148,24.558081,24.192675,18242200
2015-02-26,24.507576,24.772728,24.499159,24.638046,24.271450,13568800
2015-02-27,24.696970,24.705387,24.301348,24.372896,24.010246,14896300
2015-03-02,24.221380,24.688553,24.221380,24.570707,24.205114,15422100
2015-03-03,24.562290,24.675926,24.414984,24.520203,24.155361,11651600
2015-03-04,24.351852,24.747475,24.246634,24.541246,24.176090,13759400
2015-03-05,24.528620,24.953703,24.528620,24.865320,24.495344,16353700
2015-03-06,24.873737,25.450336,24.840067,25.197811,24.822887,32800200
2015-03-09,25.197811,25.643940,25.138889,25.593435,25.212624,32726500
2015-03-10,25.273569,25.462963,24.861111,24.920034,24.549242,37409100
2015-03-11,24.970539,25.336700,24.966330,25.117846,24.744112,25660500
2015-03-12,25.277779,25.315657,24.869528,25.004210,24.632166,17642000
2015-03-13,25.269360,25.269360,24.671717,24.861111,24.491196,18691900
2015-03-16,25.050505,25.244108,24.882154,25.071548,24.698503,15026200
2015-03-17,25.063131,25.206228,24.768518,25.037878,24.665337,16373000
2015-03-18,24.983166,24.983166,24.276094,24.591751,24.225843,37188900
2015-03-19,23.909933,24.553871,23.859428,24.360270,23.997808,32250100
2015-03-20,24.499159,24.654882,24.381313,24.381313,24.018538,51283300
2015-03-23,24.377104,24.924242,24.377104,24.671717,24.304621,17623900
2015-03-24,24.549664,25.265152,24.541246,25.046297,24.673628,29755300
2015-03-25,25.092592,25.092592,24.419191,24.436028,24.072437,25144000
2015-03-26,24.225590,24.482323,24.099327,24.208754,23.848547,15558700
2015-03-27,24.137205,24.393940,24.116161,24.255051,23.894154,14415900
2015-03-30,24.305555,24.579124,24.301348,24.381313,24.018538,11317100
2015-03-31,24.284512,24.574915,24.271885,24.276094,23.914885,11542300
2015-04-01,24.128788,24.297138,23.909933,24.044613,23.686846,11735500
2015-04-02,24.010942,24.095118,23.888889,23.952021,23.595634,8419500
2015-04-06,23.358585,24.057240,23.337542,23.914141,23.558315,14706200
2015-04-07,24.031986,24.372896,23.922560,24.023569,23.666117,16251800
2015-04-08,24.069866,24.246634,23.834175,24.036196,23.678555,16336900
2015-04-09,24.036196,24.179293,23.779461,23.994108,23.637094,11570800
2015-04-10,24.166666,24.280304,24.015152,24.132998,23.773916,12104200
2015-04-13,24.057240,24.507576,23.901516,23.964647,23.608072,16681400
2015-04-14,23.901516,24.036196,23.724747,23.968855,23.612217,12054300
2015-04-15,23.981482,24.116161,23.851009,23.998316,23.641241,12303800
2015-04-16,23.985691,24.154041,23.846802,24.006735,23.649534,10490200
2015-04-17,23.707912,23.775253,23.316498,23.480640,23.131266,21192700
2015-04-20,23.564816,23.758417,23.320707,23.598484,23.247358,20649100
2015-04-21,23.775253,23.846802,23.581650,23.745790,23.392469,17674100
2015-04-22,23.728956,23.968855,23.661615,23.884680,23.529295,26262800
2015-04-23,25.004210,25.189394,24.621212,24.785353,24.416567,37307900
2015-04-24,24.873737,25.244108,24.785353,24.915825,24.545097,20651400
2015-04-27,24.852694,24.949495,24.713804,24.869528,24.499489,16405800
2015-04-28,24.814816,25.311447,24.730640,25.033670,24.661188,22437700
2015-04-29,24.877947,25.101009,24.654882,24.781145,24.412422,17278000
2015-04-30,24.650673,24.831650,24.381313,24.520203,24.155361,14935200
2015-05-01,24.520203,24.970539,24.419191,24.957912,24.586555,16283200
2015-05-04,24.890572,25.033670,24.781145,24.877947,24.507782,9812800
2015-05-05,24.734848,24.840067,24.360270,24.385521,24.022684,18719300
2015-05-06,24.330809,24.461279,23.960438,24.196129,23.836109,16666400
2015-05-07,24.196129,24.503366,24.116161,24.393940,24.030977,15743100
2015-05-08,24.675926,24.819023,24.608585,24.755892,24.387543,11453000
2015-05-11,24.768518,24.907408,24.490740,24.553871,24.188528,10834000
2015-05-12,24.343435,24.659090,24.229797,24.537037,24.171946,10837800
2015-05-13,24.638046,24.995790,24.431818,24.751684,24.383398,15145500
2015-05-14,24.928452,25.303030,24.810606,25.294613,24.918249,14514500
2015-05-15,25.315657,25.601852,24.987373,25.004210,24.632166,14688100
2015-05-18,24.924242,25.113636,24.898991,25.025253,24.652895,9354000
2015-05-19,25.105219,25.138889,24.920034,24.936869,24.565826,6990600
2015-05-20,25.029461,25.084175,24.671717,24.894781,24.524364,11650400
2015-05-21,24.831650,25.227272,24.831650,25.143097,24.768988,12222300
2015-05-22,25.138889,25.324074,25.029461,25.134680,24.760695,10792900
2015-05-26,25.265152,25.273569,24.638046,24.718014,24.350227,14991800
2015-05-27,24.772728,25.101009,24.667509,24.991583,24.619726,10165400
2015-05-28,24.928452,25.643940,24.810606,25.488216,25.108969,21358800
2015-05-29,25.526094,25.942760,25.399832,25.824915,25.440660,34881500
2015-06-01,25.904882,26.527779,25.904882,26.329966,25.938196,33498700
2015-06-02,26.136364,26.527779,26.056396,26.094276,25.706015,16855100
2015-06-03,26.250000,26.304714,25.888046,26.098484,25.710157,18803900
2015-06-04,25.997475,26.325758,25.980640,26.300505,25.909172,18350500
2015-06-05,26.300505,26.641415,26.161615,26.611954,26.215990,23993700
2015-06-08,26.313131,26.313131,25.441919,25.610270,25.229208,29311900
2015-06-09,25.559765,25.606060,25.143097,25.425085,25.046780,22695000
2015-06-10,25.488216,25.648148,25.340910,25.450336,25.071653,21102200
2015-06-11,25.547138,25.669191,25.315657,25.441919,25.063362,16867400
2015-06-12,25.387205,25.538721,25.239899,25.260942,24.885080,16434300
2015-06-15,25.096802,25.332491,24.936869,25.252525,24.876787,19259100
2015-06-16,25.206228,26.043772,25.159933,25.471380,25.092388,22362100
2015-06-17,25.462963,25.711279,25.353535,25.484007,25.104824,10832600
2015-06-18,25.526094,25.723906,25.517677,25.542929,25.162868,16602700
2015-06-19,25.585016,25.867002,25.530304,25.744949,25.361885,25043200
2015-06-22,25.921717,26.052189,25.791246,25.989058,25.602360,12277500
2015-06-23,25.993265,26.094276,25.858585,26.064816,25.676991,13147100
2015-06-24,26.140572,26.258417,25.888046,25.930134,25.544313,20029600
2015-06-25,25.959597,26.094276,25.875422,25.925926,25.540169,14268800
2015-06-26,25.925926,25.972221,25.547138,25.690235,25.307983,15897100
2015-06-29,25.530304,25.601852,24.877947,24.987373,24.615580,18184900
2015-06-30,25.273569,25.505051,25.000000,25.353535,24.976292,20587500
2015-07-01,25.669191,25.669191,25.176767,25.433502,25.055071,19601700
2015-07-02,25.694445,26.191078,25.433502,26.031145,25.643824,39197100
2015-07-06,25.867002,26.250000,25.753366,25.993265,25.606506,38425600
2015-07-07,26.376263,26.384680,25.715488,26.085859,25.697721,50104300
2015-07-08,25.892256,25.980640,25.618687,25.669191,25.287254,33981500
2015-07-09,26.056396,26.228956,25.909090,25.997475,25.610653,21711800
2015-07-10,26.241583,26.300505,25.867002,26.250000,25.859423,20200900
2015-07-13,26.271044,26.830809,26.254210,26.712963,26.315496,35042400
2015-07-14,26.675085,27.058081,26.670876,26.763468,26.365248,26100100
2015-07-15,26.822392,27.024410,26.611954,26.700336,26.303057,30818300
2015-07-16,27.483166,28.076599,27.356903,27.605219,27.194473,73716100
2015-07-17,27.794613,28.085016,27.293772,27.899832,27.484703,62178400
2015-07-20,26.889999,29.350000,26.590000,28.570000,28.144901,37485700
2015-07-21,28.150000,28.990000,27.980000,28.600000,28.174454,44336300
2015-07-22,28.230000,28.809999,28.200001,28.450001,28.026686,33661000
2015-07-23,28.250000,28.600000,28.120001,28.430000,28.006983,40433500
2015-07-24,28.830000,28.850000,28.180000,28.230000,27.809961,16134400
2015-07-27,28.020000,28.200001,27.820000,28.000000,27.583382,15915400
2015-07-28,28.070000,28.370001,27.879999,28.330000,27.908472,33250000
2015-07-29,28.389999,28.870001,28.250000,28.750000,28.322222,13841300
2015-07-30,28.629999,28.700001,28.090000,28.370001,27.947876,11812900
2015-07-31,28.469999,28.540001,28.059999,28.120001,27.701595,11863700
2015-08-03,28.090000,28.350000,27.840000,28.330000,27.908472,16138700
2015-08-04,28.160000,28.430000,28.030001,28.410000,27.987280,9727300
2015-08-05,28.430000,28.719999,28.430000,28.559999,28.135048,10476400
2015-08-06,28.580000,28.629999,28.100000,28.160000,27.740999,9167600
2015-08-07,28.190001,28.570000,28.090000,28.549999,28.125198,12679500
2015-08-10,28.610001,28.940001,28.600000,28.660000,28.233561,7176800
2015-08-11,28.299999,28.620001,28.070000,28.139999,27.721298,9935700
2015-08-12,27.520000,28.040001,27.309999,28.010000,27.593233,11164100
2015-08-13,27.980000,28.150000,27.730000,27.990000,27.573530,7421900
2015-08-14,27.940001,28.290001,27.799999,28.260000,27.839514,7262800
2015-08-17,28.120001,28.320000,27.780001,28.290001,27.869068,9457900
2015-08-18,28.430000,28.459999,27.660000,27.770000,27.356804,10865000
2015-08-19,27.459999,27.730000,27.299999,27.430000,27.021864,11332900
2015-08-20,27.209999,27.299999,26.490000,26.520000,26.125402,15819500
2015-08-21,26.330000,26.639999,25.719999,25.770000,25.386564,19527700
2015-08-24,23.870001,25.110001,23.230000,24.930000,24.559059,23085800
2015-08-25,25.370001,25.850000,25.230000,25.230000,24.854595,22650400
2015-08-26,25.910000,26.190001,25.190001,26.170000,25.780611,16809000
2015-08-27,26.510000,27.190001,26.440001,27.100000,26.696772,18148500
2015-08-28,26.980000,27.270000,26.809999,27.250000,26.844542,11313400
2015-08-31,27.080000,27.260000,27.000000,27.110001,26.706625,11635800
2015-09-01,26.540001,27.090000,26.299999,26.480000,26.085999,15491900
2015-09-02,26.860001,26.920000,26.410000,26.870001,26.470194,10907600
2015-09-03,27.360001,27.600000,26.930000,27.040001,26.637667,12281600
2015-09-04,26.570000,26.750000,26.290001,26.480000,26.085999,9066900
2015-09-08,26.690001,26.750000,26.209999,26.360001,25.967785,14685900
2015-09-09,26.910000,26.910000,26.150000,26.200001,25.810163,10328400
2015-09-10,25.770000,26.240000,25.770000,26.150000,25.760908,12912100
2015-09-11,26.120001,26.330000,25.910000,26.320000,25.928379,6241200
2015-09-14,26.219999,26.219999,25.660000,25.750000,25.366858,9207100
2015-09-15,25.799999,26.070000,25.410000,25.980000,25.593437,12316300
2015-09-16,26.000000,26.750000,25.910000,26.740000,26.342129,13030700
2015-09-17,26.700001,26.770000,26.200001,26.270000,25.879124,14936500
2015-09-18,25.969999,26.200001,25.330000,26.020000,25.632843,23469900
2015-09-21,26.260000,26.500000,25.690001,25.920000,25.534330,9343600
2015-09-22,25.700001,25.799999,25.400000,25.610001,25.228945,10875300
2015-09-23,25.620001,25.760000,25.459999,25.590000,25.209242,6766300
2015-09-24,25.280001,25.680000,25.090000,25.610001,25.228945,9734000
2015-09-25,25.760000,25.809999,25.180000,25.330000,24.953110,8717900
2015-09-28,25.150000,25.219999,24.100000,24.139999,23.780815,15787800
2015-09-29,24.200001,24.379999,23.760000,24.080000,23.721710,19652200
2015-09-30,24.320000,24.500000,24.030001,24.440001,24.076353,12862200
2015-10-01,24.500000,25.010000,24.440001,24.910000,24.539358,16269100
2015-10-02,24.510000,25.549999,24.309999,25.530001,25.150133,13228000
2015-10-05,25.590000,25.879999,25.510000,25.740000,25.357010,11762100
2015-10-06,25.680000,25.840000,25.580000,25.680000,25.297903,8955800
2015-10-07,25.910000,25.930000,25.490000,25.680000,25.297903,11440500
2015-10-08,24.940001,25.080000,23.620001,24.150000,23.790667,48539500
2015-10-09,24.209999,24.420000,24.049999,24.299999,23.938435,17628900
2015-10-12,24.040001,24.620001,23.980000,24.559999,24.194565,9882300
2015-10-13,24.530001,24.900000,24.410000,24.620001,24.253675,11539400
2015-10-14,24.790001,24.799999,23.930000,24.000000,23.642900,14584400
2015-10-15,24.150000,24.540001,23.959999,24.510000,24.145309,16102100
2015-10-16,24.459999,24.719999,24.400000,24.549999,24.184713,9143200
2015-10-19,24.540001,24.570000,24.260000,24.559999,24.194565,11451900
2015-10-20,24.559999,24.680000,24.250000,24.420000,24.056650,12340100
2015-10-21,24.559999,24.700001,24.180000,24.209999,23.849773,16881400
2015-10-22,26.500000,27.660000,26.260000,27.580000,27.169632,44605900
2015-10-23,27.730000,28.570000,27.320000,28.160000,27.740999,21803600
2015-10-26,27.740000,28.230000,27.690001,28.170000,27.750853,13164800
2015-10-27,28.209999,28.440001,28.059999,28.370001,27.947876,10970500
2015-10-28,28.469999,28.469999,27.969999,28.250000,27.829662,11374100
2015-10-29,28.209999,28.320000,28.020000,28.180000,27.760702,9022500
2015-10-30,28.240000,28.299999,27.809999,27.900000,27.484869,9792600
2015-11-02,27.730000,28.520000,27.719999,28.500000,28.075941,11305900
2015-11-03,28.410000,29.290001,28.370001,28.900000,28.469992,16644100
2015-11-04,28.900000,29.379999,28.879999,29.299999,28.864037,13532800
2015-11-05,28.920000,29.580000,28.920000,29.299999,28.864037,12500400
2015-11-06,29.030001,29.690001,28.969999,29.400000,28.962549,12308400
2015-11-09,29.379999,29.379999,28.820000,29.180000,28.745825,11252000
2015-11-10,29.180000,29.299999,28.850000,29.139999,28.706417,13603100
2015-11-11,29.100000,29.330000,28.879999,28.950001,28.519247,22126500
2015-11-12,28.670000,28.920000,28.530001,28.559999,28.135048,11702700
2015-11-13,28.549999,29.040001,28.139999,28.190001,27.770555,14700800
2015-11-16,28.290001,28.500000,27.959999,28.480000,28.056238,11121400
2015-11-17,28.500000,28.719999,28.330000,28.450001,28.026686,9095800
2015-11-18,28.620001,28.780001,28.190001,28.750000,28.322222,10796500
2015-11-19,28.559999,28.900000,28.559999,28.770000,28.341925,6751300
2015-11-20,28.990000,29.160000,28.660000,29.059999,28.627609,7997200
2015-11-23,28.920000,29.129999,28.639999,28.840000,28.410883,7365400
2015-11-24,28.420000,29.180000,28.420000,29.000000,28.568502,7769400
2015-11-25,28.780001,29.040001,28.709999,29.000000,28.568502,6657900
2015-11-27,29.090000,29.219999,28.790001,29.100000,28.667015,5317700
2015-11-30,29.090000,29.629999,29.040001,29.590000,29.149723,16687400
2015-12-01,29.750000,29.830000,29.020000,29.049999,28.617758,12950700
2015-12-02,29.160000,29.410000,28.790001,28.969999,28.538950,10628400
2015-12-03,29.000000,29.000000,28.120001,28.590000,28.164604,13641400
2015-12-04,28.719999,29.590000,28.590000,29.350000,28.913296,10055900
2015-12-07,29.290001,29.370001,28.820000,29.049999,28.617758,7037100
2015-12-08,28.930000,29.100000,28.500000,28.790001,28.361626,8936400
2015-12-09,28.420000,28.850000,28.139999,28.340000,27.918324,7131700
2015-12-10,28.280001,28.900000,28.230000,28.570000,28.144901,8830800
2015-12-11,28.190001,28.430000,27.870001,27.969999,27.553827,9105200
2015-12-14,28.100000,28.420000,27.850000,28.040001,27.622787,11452800
2015-12-15,28.230000,28.600000,28.219999,28.309999,27.888767,10287100
2015-12-16,28.520000,28.660000,28.260000,28.570000,28.144901,12510200
2015-12-17,28.650000,28.750000,28.030001,28.049999,27.632635,7321700
2015-12-18,27.840000,28.070000,27.450001,27.459999,27.051414,20493800
2015-12-21,27.620001,27.709999,27.260000,27.590000,27.179483,10801500
2015-12-22,27.620001,28.070000,27.420000,27.889999,27.475018,12376200
2015-12-23,28.000000,28.040001,27.650000,27.780001,27.366655,5315300
2015-12-24,27.910000,27.940001,27.600000,27.660000,27.248442,2517300
2015-12-28,27.520000,27.690001,27.320000,27.639999,27.228737,3722400
2015-12-29,27.730000,28.000000,27.700001,27.910000,27.494722,4332400
2015-12-30,27.730000,27.990000,27.709999,27.750000,27.337103,4036200
2015-12-31,27.629999,27.690001,27.450001,27.480000,27.071115,4923800
2016-01-04,27.110001,27.250000,26.080000,26.430000,26.036741,19107600
2016-01-05,26.610001,26.860001,25.940001,26.120001,25.731356,16691400
2016-01-06,25.830000,26.660000,25.770000,26.410000,26.017040,12139900
2016-01-07,25.799999,26.469999,25.600000,25.690001,25.307753,13350000
2016-01-08,25.969999,26.160000,25.670000,25.750000,25.366858,11233800
2016-01-11,25.950001,26.250000,25.799999,26.100000,25.711653,11939900
2016-01-12,26.110001,26.400000,25.920000,26.209999,25.820015,9444200
2016-01-13,26.410000,26.459999,25.260000,25.410000,25.031919,11659900
2016-01-14,25.420000,26.150000,24.950001,25.860001,25.475222,16551100
2016-01-15,25.049999,25.480000,24.799999,25.260000,24.884151,14332700
2016-01-19,25.610001,25.910000,25.360001,25.770000,25.386564,13824600
2016-01-20,24.840000,26.139999,24.760000,25.820000,25.435818,17507900
2016-01-21,25.870001,26.250000,25.320000,26.090000,25.701801,15403100
2016-01-22,26.459999,26.740000,26.110001,26.430000,26.036741,10447000
2016-01-25,26.400000,26.549999,26.100000,26.139999,25.751055,9867100
2016-01-26,26.200001,26.670000,26.200001,26.650000,26.253468,7625500
2016-01-27,26.709999,27.070000,26.100000,26.420000,26.026892,18597800
2016-01-28,23.230000,24.129999,22.400000,23.129999,22.785845,55880800
2016-01-29,23.190001,23.480000,22.950001,23.459999,23.110931,30604900
2016-02-01,23.340000,24.230000,23.260000,23.940001,23.583790,19884900
2016-02-02,23.719999,23.760000,23.209999,23.290001,22.943464,16073900
2016-02-03,23.450001,23.730000,22.910000,23.500000,23.150337,19749200
2016-02-04,23.490000,23.610001,23.090000,23.490000,23.140486,15936800
2016-02-05,23.450001,23.510000,23.059999,23.200001,22.854801,18872300
2016-02-08,22.860001,22.879999,21.520000,22.480000,22.145515,20601200
2016-02-09,22.190001,23.000000,21.910000,22.010000,21.682510,16786400
2016-02-10,22.270000,22.719999,22.080000,22.320000,21.987894,12220500
2016-02-11,21.930000,22.450001,21.639999,22.080000,21.751467,17634500
2016-02-12,22.379999,22.620001,22.230000,22.490000,22.155367,11866100
2016-02-16,22.299999,23.000000,22.230000,22.950001,22.608521,10380600
2016-02-17,23.080000,23.280001,22.900000,23.219999,22.874504,10904000
2016-02-18,23.120001,23.670000,23.080000,23.530001,23.179892,11111100
2016-02-19,23.430000,23.860001,23.350000,23.809999,23.455725,9784600
2016-02-22,23.950001,24.290001,23.920000,24.240000,23.879326,9724900
2016-02-23,24.040001,24.200001,23.610001,23.620001,23.268553,10125500
2016-02-24,23.430000,24.020000,23.280001,23.959999,23.603495,9471700
2016-02-25,24.030001,24.200001,23.889999,24.180000,23.820221,7554600
2016-02-26,24.389999,24.540001,24.129999,24.180000,23.820221,7415000
2016-02-29,24.120001,24.350000,23.770000,23.799999,23.445875,7062200
2016-03-01,23.990000,24.250000,23.620001,24.250000,23.889177,8742000
2016-03-02,24.129999,24.190001,23.660000,23.719999,23.367065,9875800
2016-03-03,23.690001,23.990000,23.580000,23.940001,23.583790,7778100
2016-03-04,24.059999,24.620001,23.930000,24.410000,24.046797,8254200
2016-03-07,24.360001,24.400000,24.059999,24.260000,23.899029,4889000
2016-03-08,24.020000,24.389999,23.690001,24.070000,23.711857,11574000
2016-03-09,24.340000,24.490000,23.700001,23.950001,23.593643,12347700
2016-03-10,24.040001,24.100000,22.980000,23.690001,23.337511,19207600
2016-03-11,23.969999,24.080000,23.900000,24.020000,23.662603,13854000
2016-03-14,24.020000,24.350000,23.900000,24.280001,23.918732,16007600
2016-03-15,24.100000,24.150000,23.540001,23.580000,23.229145,8854200
2016-03-16,23.450001,23.790001,22.879999,23.680000,23.327662,22223000
2016-03-17,23.780001,23.930000,23.340000,23.760000,23.406471,11338200
2016-03-18,23.760000,23.969999,23.190001,23.770000,23.416321,19940400
2016-03-21,23.809999,24.490000,23.750000,24.340000,23.977840,14712700
2016-03-22,24.160000,24.330000,24.100000,24.129999,23.770962,8961000
2016-03-23,24.090000,24.280001,23.959999,24.170000,23.810368,7740900
2016-03-24,24.129999,24.370001,24.000000,24.330000,23.967989,13475100
2016-03-28,24.290001,24.340000,24.080000,24.120001,23.761116,5699700
2016-03-29,23.700001,24.110001,23.360001,24.100000,23.741411,13859700
2016-03-30,24.059999,24.570000,24.010000,24.040001,23.682306,11125700
2016-03-31,24.129999,24.150000,23.799999,23.860001,23.504982,14866600
2016-04-01,24.370001,24.379999,23.670000,23.879999,23.524683,11167900
2016-04-04,23.400000,24.180000,23.400000,24.030001,23.672453,12415900
2016-04-05,23.690001,24.670000,23.650000,24.389999,24.027096,16589800
2016-04-06,24.450001,25.520000,24.360001,25.430000,25.051622,21660500
2016-04-07,25.280001,25.280001,23.959999,24.100000,23.741411,20124400
2016-04-08,24.209999,24.379999,23.879999,24.070000,23.711857,8497400
2016-04-11,24.170000,24.440001,24.040001,24.059999,23.702005,7405100
2016-04-12,24.190001,24.549999,24.030001,24.420000,24.056650,8928000
2016-04-13,24.580000,25.600000,24.549999,25.080000,24.706827,17002200
2016-04-14,25.290001,25.320000,24.959999,25.209999,24.834892,7870500
2016-04-15,25.309999,25.330000,25.000000,25.219999,24.844746,6344600
2016-04-18,24.799999,25.469999,24.799999,25.309999,24.933405,5954700
2016-04-19,24.650000,24.879999,24.080000,24.299999,23.938435,20833700
2016-04-20,24.299999,24.860001,24.260000,24.660000,24.293079,8495100
2016-04-21,24.629999,24.870001,24.600000,24.690001,24.322634,8403900
2016-04-22,24.610001,24.969999,24.370001,24.400000,24.036947,10639600
2016-04-25,24.400000,24.540001,24.150000,24.219999,23.859623,16246800
2016-04-26,24.170000,24.719999,24.170000,24.490000,24.125607,18002700
2016-04-27,25.330000,26.209999,25.190001,25.270000,24.894003,29282900
2016-04-28,25.090000,25.340000,24.549999,24.620001,24.253675,13422100
2016-04-29,24.370001,24.580000,24.059999,24.430000,24.066502,20154900
2016-05-02,24.180000,24.389999,24.059999,24.260000,23.899029,10646100
2016-05-03,24.070000,24.250000,23.879999,23.980000,23.623196,9531500
2016-05-04,23.820000,24.040001,23.730000,23.799999,23.445875,8123200
2016-05-05,24.020000,24.049999,23.760000,23.809999,23.455725,7915400
2016-05-06,23.670000,23.840000,23.540001,23.820000,23.465576,7928400
2016-05-09,23.790001,24.139999,23.730000,24.020000,23.662603,7844700
2016-05-10,24.040001,24.219999,23.950001,24.160000,23.800518,8497400
2016-05-11,24.120001,24.180000,23.740000,23.740000,23.386766,7543900
2016-05-12,23.910000,23.920000,23.500000,23.580000,23.229145,10867900
2016-05-13,23.650000,23.930000,23.600000,23.780001,23.426172,8556700
2016-05-16,23.680000,23.879999,23.610001,23.799999,23.445875,5589400
2016-05-17,23.639999,23.799999,23.180000,23.270000,22.923759,9957800
2016-05-18,23.309999,23.850000,23.219999,23.690001,23.337511,8891000
2016-05-19,23.590000,23.670000,23.250000,23.420000,23.071527,5194100
2016-05-20,23.440001,23.760000,23.309999,23.650000,23.298105,6825000
2016-05-23,23.379999,23.820000,23.340000,23.459999,23.110931,5367000
2016-05-24,23.639999,24.180000,23.639999,24.049999,23.692154,8014000
2016-05-25,23.910000,24.200001,23.889999,24.040001,23.682306,7342900
2016-05-26,23.980000,24.129999,23.860001,24.120001,23.761116,5548900
2016-05-27,24.170000,24.400000,24.150000,24.360001,23.997541,8050500
2016-05-31,24.290001,24.620001,24.240000,24.459999,24.096054,11426400
2016-06-01,24.430000,24.440001,24.040001,24.070000,23.711857,7718000
2016-06-02,24.150000,24.270000,23.879999,24.250000,23.889177,10350100
2016-06-03,24.209999,24.250000,23.750000,23.980000,23.623196,6413600
2016-06-06,23.980000,24.100000,23.870001,23.990000,23.633049,7058900
2016-06-07,24.129999,24.360001,24.110001,24.280001,23.918732,9760100
2016-06-08,24.250000,24.340000,24.110001,24.230000,23.869476,7722400
2016-06-09,24.190001,24.379999,24.070000,24.330000,23.967989,7914800
2016-06-10,24.160000,24.270000,23.910000,24.070000,23.711857,7782000
2016-06-13,24.020000,24.129999,23.840000,23.889999,23.534534,8627500
2016-06-14,23.790001,24.010000,23.629999,23.879999,23.524683,9928000
2016-06-15,23.990000,24.080000,23.790001,23.959999,23.603495,9326800
2016-06-16,23.940001,23.959999,23.469999,23.850000,23.495131,9399200
2016-06-17,23.740000,23.889999,23.590000,23.790001,23.436024,13176600
2016-06-20,24.340000,24.870001,24.260000,24.570000,24.204414,14220700
2016-06-21,24.540001,24.770000,24.450001,24.700001,24.332483,7862300
2016-06-22,24.620001,24.750000,24.320000,24.340000,23.977840,6673700
2016-06-23,24.690001,24.950001,24.600000,24.850000,24.480251,9485400
2016-06-24,23.770000,23.889999,22.809999,23.129999,22.785845,24566100
2016-06-27,22.950001,23.120001,22.299999,22.719999,22.381943,12862200
2016-06-28,22.889999,23.110001,22.770000,22.990000,22.647926,11995600
2016-06-29,23.180000,23.379999,23.070000,23.309999,22.963165,9143400
2016-06-30,23.360001,23.469999,23.250000,23.410000,23.061676,9464700
2016-07-01,23.430000,23.950001,23.410000,23.780001,23.426172,9683400
2016-07-05,23.709999,23.820000,23.430000,23.760000,23.406471,8677200
2016-07-06,23.709999,23.850000,23.299999,23.830000,23.475430,9509900
2016-07-07,23.920000,24.000000,23.750000,23.930000,23.573940,10007200
2016-07-08,24.020000,24.660000,23.950001,24.610001,24.243824,7480200
2016-07-11,24.740000,25.020000,24.639999,24.860001,24.490103,8652400
2016-07-12,24.969999,25.340000,24.969999,25.129999,24.756084,9625300
2016-07-13,25.120001,25.270000,24.980000,25.120001,24.746233,5817800
2016-07-14,25.450001,26.260000,25.400000,26.080000,25.691950,23705900
2016-07-15,26.200001,26.340000,25.950001,26.340000,25.948080,17603900
2016-07-18,26.230000,26.559999,26.170000,26.490000,26.095848,12382100
2016-07-19,26.590000,26.719999,26.389999,26.500000,26.105700,17414500
2016-07-20,26.610001,27.139999,26.410000,26.990000,26.588411,27170100
2016-07-21,28.870001,30.309999,28.790001,29.930000,29.484665,44959100
2016-07-22,29.809999,30.559999,29.750000,30.490000,30.036333,20272000
2016-07-25,30.309999,30.860001,30.270000,30.680000,30.223505,17892900
2016-07-26,30.559999,31.410000,30.559999,31.400000,30.932791,13911700
2016-07-27,31.440001,31.790001,31.100000,31.309999,30.844131,11859600
2016-07-28,31.280001,31.490000,31.070000,31.170000,30.706215,8835500
2016-07-29,31.120001,31.240000,30.900000,31.160000,30.696363,8433200
2016-08-01,31.299999,31.389999,31.129999,31.250000,30.785025,13129900
2016-08-02,31.070000,31.209999,30.690001,30.790001,30.331869,11913500
2016-08-03,30.799999,31.040001,30.740000,30.950001,30.489491,7371100
2016-08-04,30.940001,31.309999,30.850000,31.059999,30.597851,7592700
2016-08-05,31.150000,31.450001,31.129999,31.389999,30.922941,7795600
2016-08-08,31.379999,31.379999,30.940001,31.150000,30.686512,9527600
2016-08-09,31.219999,31.240000,30.940001,31.110001,30.647108,7592100
2016-08-10,31.110001,31.250000,30.940001,31.120001,30.656958,6077700
2016-08-11,31.190001,31.500000,31.020000,31.200001,30.735769,5910400
2016-08-12,31.219999,31.270000,30.889999,30.889999,30.430382,11809000
2016-08-15,31.000000,31.309999,30.639999,31.049999,30.587999,7038800
2016-08-16,30.900000,30.980000,30.580000,30.830000,30.371275,6539700
2016-08-17,30.879999,30.900000,30.490000,30.610001,30.154547,6961500
2016-08-18,30.510000,30.670000,30.420000,30.520000,30.065887,6023500
2016-08-19,30.459999,30.650000,30.360001,30.629999,30.174250,7840700
2016-08-22,30.459999,30.639999,30.370001,30.620001,30.164398,6240700
2016-08-23,30.680000,30.969999,30.650000,30.670000,30.213654,5594500
2016-08-24,30.740000,31.330000,30.730000,31.250000,30.785025,14752000
2016-08-25,31.080000,31.450001,31.059999,31.340000,30.873684,7459800
2016-08-26,31.340000,31.629999,31.090000,31.309999,30.844131,7750400
2016-08-29,31.250000,31.500000,31.139999,31.400000,30.932791,5108800
2016-08-30,31.459999,32.029999,31.360001,31.770000,31.297287,9800100
2016-08-31,31.660000,32.230000,31.590000,32.160000,31.681484,12641800
2016-09-01,32.150002,32.240002,31.879999,32.130001,31.651934,6808400
2016-09-02,32.299999,32.500000,32.110001,32.279999,31.799698,6760600
2016-09-06,32.200001,32.660000,32.150002,32.410000,31.927765,8436800
2016-09-07,32.450001,32.730000,32.290001,32.509998,32.026276,9422600
2016-09-08,32.500000,32.810001,32.380001,32.700001,32.213448,7148500
2016-09-09,32.419998,32.590000,31.860001,31.889999,31.415501,13068800
2016-09-12,31.670000,32.570000,31.549999,32.490002,32.006577,8538900
2016-09-13,32.160000,32.290001,31.709999,31.910000,31.435204,9453200
2016-09-14,32.070000,32.130001,31.700001,31.799999,31.326839,7552100
2016-09-15,31.740000,31.980000,31.330000,31.980000,31.504162,7486700
2016-09-16,31.709999,31.879999,31.629999,31.770000,31.297287,10979900
2016-09-19,31.809999,31.959999,31.430000,31.570000,31.100262,5870500
2016-09-20,31.750000,31.799999,31.230000,31.360001,30.893387,6440200
2016-09-21,31.559999,32.020000,31.500000,31.969999,31.494310,10875800
2016-09-22,32.020000,32.340000,32.020000,32.279999,31.799698,5313600
2016-09-23,32.279999,32.380001,32.070000,32.070000,31.592823,5515400
2016-09-26,31.879999,32.009998,31.590000,31.670000,31.198774,6223700
2016-09-27,31.799999,32.099998,31.680000,31.940001,31.464760,5914100
2016-09-28,31.950001,31.980000,31.670000,31.850000,31.376097,6116100
2016-09-29,33.040001,33.189999,32.189999,32.299999,31.819399,16921000
2016-09-30,32.490002,33.020000,32.459999,32.900002,32.410477,11959900
2016-10-03,31.299999,32.650002,31.299999,32.549999,32.065681,12565800
2016-10-04,32.709999,33.029999,32.419998,32.560001,32.075535,6656500
2016-10-05,32.400002,32.470001,32.080002,32.150002,31.671633,8807300
2016-10-06,32.119999,32.209999,31.860001,32.130001,31.651934,5676700
2016-10-07,32.250000,32.250000,31.040001,31.620001,31.149521,10113900
2016-10-10,32.009998,32.250000,31.889999,31.950001,31.474607,9297200
2016-10-11,31.959999,31.980000,31.139999,31.459999,30.991901,9241200
2016-10-12,31.280001,31.610001,31.280001,31.500000,31.031305,6354200
2016-10-13,31.790001,31.830000,31.080000,31.510000,31.041155,10798700
2016-10-14,31.820000,32.240002,31.600000,31.889999,31.415501,14391900
2016-10-17,32.389999,32.389999,31.379999,31.809999,31.336693,11429800
2016-10-18,32.049999,32.369999,31.570000,31.639999,31.169220,12512200
2016-10-19,31.910000,32.639999,31.719999,32.520000,32.036129,23765800
2016-10-20,29.500000,29.840000,28.750000,29.020000,28.588205,52625200
2016-10-21,29.059999,29.190001,28.600000,29.059999,28.627609,24223500
2016-10-24,29.260000,29.709999,29.150000,29.219999,28.785229,16402300
2016-10-25,29.200001,29.389999,28.940001,29.049999,28.617758,10293300
2016-10-26,29.000000,29.049999,28.770000,28.820000,28.391180,8944500
2016-10-27,28.969999,29.070000,28.629999,28.809999,28.381329,11797800
2016-10-28,28.860001,29.100000,28.469999,28.600000,28.174454,10716800
2016-10-31,28.770000,28.770000,28.440001,28.510000,28.085793,8703400
2016-11-01,28.510000,28.700001,28.090000,28.379999,27.957727,8536900
2016-11-02,28.240000,28.510000,28.110001,28.260000,27.839514,8841100
2016-11-03,28.170000,28.450001,28.020000,28.059999,27.642488,6215700
2016-11-04,28.100000,28.290001,27.940001,27.950001,27.534128,7293700
2016-11-07,28.340000,28.370001,28.080000,28.240000,27.819811,9122700
2016-11-08,28.090000,28.250000,27.629999,28.030001,27.612936,14234400
2016-11-09,27.340000,28.469999,27.330000,28.290001,27.869068,11695600
2016-11-10,28.389999,28.750000,27.820000,28.160000,27.740999,12155300
2016-11-11,27.969999,28.770000,27.950001,28.639999,28.213858,9603100
2016-11-14,28.629999,28.740000,27.860001,27.889999,27.475018,12413800
2016-11-15,28.030001,28.770000,28.030001,28.490000,28.066092,9482800
2016-11-16,28.389999,28.889999,28.309999,28.330000,27.908472,10594100
2016-11-17,28.370001,28.920000,28.350000,28.870001,28.440437,8908400
2016-11-18,28.840000,28.950001,28.570000,28.690001,28.263115,11668700
2016-11-21,28.730000,29.139999,28.670000,29.000000,28.568502,7376100
2016-11-22,29.440001,29.440001,28.930000,29.059999,28.627609,7369200
2016-11-23,28.990000,29.070000,28.650000,28.900000,28.469992,6033400
2016-11-25,28.940001,28.990000,28.750000,28.950001,28.519247,3076000
2016-11-28,28.840000,28.889999,28.530001,28.570000,28.144901,7245300
2016-11-29,28.559999,28.809999,28.500000,28.510000,28.085793,7281600
2016-11-30,28.510000,28.590000,27.799999,27.809999,27.396208,13777100
2016-12-01,27.920000,28.010000,27.280001,27.389999,26.982458,9774900
2016-12-02,27.730000,28.830000,27.690001,28.420000,27.997133,14437500
2016-12-05,28.549999,28.900000,28.320000,28.350000,27.928173,10802900
2016-12-06,28.299999,28.389999,28.030001,28.209999,27.790257,10387500
2016-12-07,28.139999,28.990000,28.139999,28.910000,28.479843,10286900
2016-12-08,28.959999,29.870001,28.910000,29.420000,28.982252,12263200
2016-12-09,29.610001,30.110001,29.420000,29.969999,29.524067,13549000
2016-12-12,30.020000,30.459999,29.840000,30.209999,29.760498,14940100
2016-12-13,30.360001,30.520000,29.809999,29.820000,29.376299,11664300
2016-12-14,29.850000,30.160000,29.639999,29.820000,29.376299,9624800
2016-12-15,29.870001,29.969999,29.650000,29.730000,29.287642,10140600
2016-12-16,29.730000,29.920000,29.559999,29.610001,29.169428,14682000
2016-12-19,29.700001,29.799999,29.320000,29.379999,28.942846,7814500
2016-12-20,29.530001,29.600000,29.010000,29.260000,28.824635,11236900
2016-12-21,29.139999,29.389999,29.090000,29.360001,28.923145,8634800
2016-12-22,29.280001,29.700001,29.209999,29.540001,29.100470,8865100
2016-12-23,29.820000,29.820000,29.420000,29.790001,29.346748,8132700
2016-12-27,29.830000,30.370001,29.809999,30.240000,29.790052,7513400
2016-12-28,30.240000,30.250000,29.930000,30.010000,29.563473,8118900
2016-12-29,30.020000,30.209999,29.830000,29.980000,29.533920,7119600
2016-12-30,30.379999,30.379999,29.570000,29.690001,29.248238,8189700
2017-01-03,29.830000,30.190001,29.639999,29.840000,29.396004,7664800
2017-01-04,29.910000,30.010000,29.510000,29.760000,29.317194,9538800
2017-01-05,29.730000,30.080000,29.610001,30.010000,29.563473,9062200
2017-01-06,29.969999,31.160000,29.780001,31.049999,30.587999,13351400
2017-01-09,31.000000,31.030001,30.600000,30.750000,30.292463,10532200
2017-01-10,30.670000,30.719999,29.840000,30.250000,29.799904,13833100
2017-01-11,30.299999,30.420000,30.010000,30.410000,29.957521,8169000
2017-01-12,30.799999,30.799999,30.110001,30.350000,29.898415,7890400
2017-01-13,30.209999,30.350000,29.840000,30.290001,29.839308,7822800
2017-01-17,30.330000,30.690001,30.110001,30.290001,29.839308,7447100
2017-01-18,30.290001,30.480000,30.139999,30.389999,29.937819,9523600
2017-01-19,30.260000,30.840000,30.190001,30.719999,30.262909,14112400
2017-01-20,30.840000,30.959999,30.520000,30.639999,30.184101,8496300
2017-01-23,30.639999,30.650000,30.059999,30.270000,29.819607,9341100
2017-01-24,30.299999,30.330000,29.700001,29.990000,29.543772,16925400
2017-01-25,30.250000,30.500000,30.110001,30.230000,29.780201,20148200
2017-01-26,32.369999,32.849998,31.549999,31.740000,31.267733,32044400
2017-01-27,31.950001,32.610001,31.360001,32.509998,32.026276,17406700
2017-01-30,32.230000,32.279999,31.799999,32.169998,31.691334,11247700
2017-01-31,31.889999,32.000000,31.530001,31.830000,31.356394,9469100
2017-02-01,31.900000,32.240002,31.830000,32.180000,31.701189,9700200
2017-02-02,32.060001,32.209999,31.870001,31.969999,31.494310,6028600
2017-02-03,32.110001,32.200001,31.910000,32.070000,31.592823,5423500
2017-02-06,32.009998,32.240002,31.870001,32.029999,31.553417,5339800
2017-02-07,31.950001,32.470001,31.799999,32.430000,31.947470,8136000
2017-02-08,32.450001,33.410000,32.279999,33.250000,32.755264,17081200
2017-02-09,33.290001,33.349998,32.980000,33.119999,32.627197,10465600
2017-02-10,33.110001,33.840000,33.060001,33.630001,33.129612,13492300
2017-02-13,33.619999,34.090000,33.560001,33.790001,33.287231,10744500
2017-02-14,33.610001,33.959999,33.570000,33.630001,33.129612,7615600
2017-02-15,33.619999,34.150002,33.500000,34.009998,33.503956,7994500
2017-02-16,33.840000,34.150002,33.459999,33.540001,33.040951,8891800
2017-02-17,33.509998,33.900002,33.470001,33.759998,33.257675,7797300
2017-02-21,33.759998,34.230000,33.759998,33.919998,33.415295,7237500
2017-02-22,33.919998,34.139999,33.630001,33.820000,33.316784,7068200
2017-02-23,33.779999,33.930000,33.540001,33.599998,33.100060,6528400
2017-02-24,33.549999,34.070000,33.380001,34.060001,33.553215,8098700
2017-02-27,34.049999,34.310001,33.820000,34.279999,33.769939,7372800
2017-02-28,34.160000,34.279999,33.889999,33.900002,33.395596,8105300
2017-03-01,34.110001,34.430000,34.099998,34.270000,33.760090,5736100
2017-03-02,34.189999,34.330002,33.740002,33.910000,33.405445,4697900
2017-03-03,33.860001,33.869999,33.389999,33.740002,33.237980,6555700
2017-03-06,33.669998,33.759998,33.279999,33.639999,33.139462,7728500
2017-03-07,33.709999,33.830002,33.400002,33.470001,32.971989,6945500
2017-03-08,33.549999,33.549999,33.169998,33.320000,32.824223,7871900
2017-03-09,33.270000,33.349998,33.020000,33.180000,32.686306,5545400
2017-03-10,33.439999,33.459999,33.070000,33.130001,32.637054,4977300
2017-03-13,33.130001,33.220001,32.740002,32.810001,32.321815,10865400
2017-03-14,32.849998,32.950001,32.580002,32.860001,32.371067,6829700
2017-03-15,33.020000,33.169998,32.560001,32.889999,32.400620,9777800
2017-03-16,32.779999,33.200001,32.770000,33.099998,32.607498,6925800
2017-03-17,33.299999,33.840000,33.160000,33.700001,33.198574,15941300
2017-03-20,33.680000,34.029999,33.450001,33.810001,33.306934,7319600
2017-03-21,33.919998,33.990002,33.049999,33.189999,32.696159,8918500
2017-03-22,33.259998,33.669998,33.169998,33.529999,33.031097,5486100
2017-03-23,33.450001,33.779999,33.330002,33.520000,33.021248,4833900
2017-03-24,33.660000,33.669998,33.220001,33.400002,32.903034,4317800
2017-03-27,33.160000,33.490002,32.840000,33.430000,32.932587,4994400
2017-03-28,33.400002,33.660000,33.299999,33.529999,33.031097,4609700
2017-03-29,33.619999,33.779999,33.430000,33.650002,33.149319,7242700
2017-03-30,33.650002,33.799999,33.540001,33.700001,33.198574,4993400
2017-03-31,33.500000,33.950001,33.450001,33.570000,33.070503,10223000
2017-04-03,33.369999,33.910000,33.320000,33.759998,33.257675,9828700
2017-04-04,33.759998,34.259998,33.669998,34.139999,33.632019,8679900
2017-04-05,34.220001,34.740002,33.779999,33.810001,33.306934,11241900
2017-04-06,34.009998,34.320000,33.840000,34.160000,33.651726,8854900
2017-04-07,34.110001,34.220001,33.799999,33.910000,33.405445,6644500
2017-04-10,34.000000,34.360001,33.930000,34.060001,33.553215,6268100
2017-04-11,34.090000,34.139999,33.720001,33.990002,33.484257,5165100
2017-04-12,33.880001,34.630001,33.880001,34.270000,33.760090,10457200
2017-04-13,34.200001,34.700001,34.099998,34.330002,33.819202,7783100
2017-04-17,34.349998,34.439999,34.090000,34.439999,33.927559,6952000
2017-04-18,34.110001,34.369999,33.810001,34.020000,33.513805,7487000
2017-04-19,34.200001,34.340000,33.779999,33.849998,33.346336,15164000
2017-04-20,32.860001,33.040001,32.320000,32.529999,32.045975,28093800
2017-04-21,32.689999,32.689999,31.940001,32.180000,31.701189,14339200
2017-04-24,32.230000,32.560001,31.889999,32.049999,31.573120,16587800
2017-04-25,32.110001,32.830002,31.980000,32.810001,32.321815,14449300
2017-04-26,32.790001,33.130001,32.619999,33.009998,32.518837,11191500
2017-04-27,33.020000,33.119999,32.799999,33.060001,32.568096,8396400
2017-04-28,33.009998,33.450001,32.889999,33.410000,32.912884,10127600
2017-05-01,33.459999,33.580002,33.189999,33.310001,32.814373,6931700
2017-05-02,33.389999,33.549999,33.330002,33.509998,33.011395,6573300
2017-05-03,33.599998,33.599998,33.139999,33.259998,32.765114,5661500
2017-05-04,33.400002,33.669998,33.259998,33.509998,33.011395,6990300
2017-05-05,33.570000,33.709999,33.439999,33.500000,33.001541,8548200
2017-05-08,33.520000,33.720001,33.200001,33.240002,32.745415,9140300
2017-05-09,33.240002,33.869999,33.090000,33.720001,33.218273,9298100
2017-05-10,33.669998,34.160000,33.669998,33.880001,33.375889,8130800
2017-05-11,33.700001,34.169998,33.660000,34.119999,33.612320,5595900
2017-05-12,34.189999,34.279999,34.000000,34.070000,33.563065,5118200
2017-05-15,34.180000,34.369999,33.919998,34.180000,33.671425,4753800
2017-05-16,34.160000,34.869999,34.150002,34.810001,34.292049,6408900
2017-05-17,34.560001,34.599998,33.560001,33.580002,33.080360,10453200
2017-05-18,33.639999,33.910000,32.990002,33.730000,33.228123,11999800
2017-05-19,33.900002,34.209999,33.599998,33.830002,33.326641,8489200
2017-05-22,33.860001,34.029999,33.650002,33.860001,33.356194,6508200
2017-05-23,34.250000,34.860001,34.250000,34.610001,34.095028,11322200
2017-05-24,34.619999,34.990002,34.439999,34.820000,34.301903,9393300
2017-05-25,34.880001,35.299999,34.860001,35.220001,34.695953,8498700
2017-05-26,35.259998,35.259998,34.660000,34.900002,34.380714,6622500
2017-05-30,34.779999,34.830002,34.369999,34.619999,34.104881,7254300
2017-05-31,34.919998,34.919998,34.099998,34.299999,33.789642,9762200
2017-06-01,34.439999,34.889999,34.200001,34.790001,34.272354,6665300
2017-06-02,34.919998,35.439999,34.610001,35.320000,34.794464,6860300
2017-06-05,36.020000,36.020000,35.389999,35.549999,35.021046,6050100
2017-06-06,35.410000,35.810001,35.349998,35.470001,34.942234,5527300
2017-06-07,35.650002,35.869999,35.560001,35.770000,35.237770,5328300
2017-06-08,36.070000,36.320000,35.869999,36.139999,35.602264,8946500
2017-06-09,36.250000,36.500000,34.689999,34.939999,34.420120,11051900
2017-06-12,34.700001,34.770000,33.980000,34.150002,33.641876,12833200
2017-06-13,34.209999,34.549999,34.080002,34.459999,33.947262,7569100
2017-06-14,34.630001,34.730000,34.110001,34.500000,33.986668,6534100
2017-06-15,34.259998,34.290001,33.889999,34.090000,33.582767,6296600
2017-06-16,33.919998,34.320000,33.910000,33.959999,33.454700,9987700
2017-06-19,34.119999,34.990002,34.000000,34.900002,34.380714,5840700
2017-06-20,34.740002,35.340000,34.740002,34.930000,34.410271,10636800
2017-06-21,35.000000,35.119999,34.750000,34.959999,34.439827,5418900
2017-06-22,34.990002,35.279999,34.840000,35.119999,34.597443,5633900
2017-06-23,35.119999,35.740002,34.959999,35.570000,35.040745,24063300
2017-06-26,35.889999,35.970001,35.000000,35.090000,34.567890,6844400
2017-06-27,35.000000,35.320000,34.849998,34.910000,34.390568,8623300
2017-06-28,35.000000,35.330002,34.619999,35.310001,34.784615,4806500
2017-06-29,35.299999,35.299999,34.090000,34.509998,33.996513,8277000
2017-06-30,34.779999,35.070000,34.520000,34.919998,34.400417,10845500
2017-07-03,35.150002,35.310001,34.549999,34.599998,34.085175,4517400
2017-07-05,34.730000,34.860001,34.509998,34.720001,34.203392,7540700
2017-07-06,34.389999,34.500000,33.950001,34.029999,33.523659,8600400
2017-07-07,34.020000,34.549999,34.009998,34.230000,33.720684,6896600
2017-07-10,34.310001,35.139999,34.279999,35.040001,34.518635,8736400
2017-07-11,34.970001,35.450001,34.889999,35.189999,34.666397,8455900
2017-07-12,35.529999,36.200001,35.529999,36.029999,35.493896,13437500
2017-07-13,36.610001,37.130001,36.259998,36.500000,35.956905,12906200
2017-07-14,36.910000,37.200001,36.830002,37.080002,36.528282,9710400
2017-07-17,37.029999,37.169998,36.570000,37.049999,36.498722,8186400
2017-07-18,36.939999,36.939999,36.570000,36.799999,36.252441,12773500
2017-07-19,36.950001,37.259998,36.650002,37.080002,36.528282,8817600
2017-07-20,37.169998,37.480000,37.000000,37.180000,36.626789,17538300
2017-07-21,36.200001,36.900002,36.049999,36.610001,36.065273,22222100
2017-07-24,36.450001,36.730000,36.220001,36.380001,35.838696,13039800
2017-07-25,36.330002,36.490002,36.060001,36.320000,35.779587,6499000
2017-07-26,36.360001,37.070000,36.360001,37.040001,36.488873,11305100
2017-07-27,37.090000,37.270000,35.540001,36.169998,35.631813,15288200
2017-07-28,36.080002,36.209999,35.730000,35.939999,35.405239,7654600
2017-07-31,36.090000,36.130001,35.650002,35.730000,35.198368,6228000
2017-08-01,35.820000,36.020000,35.750000,35.910000,35.375687,4685400
2017-08-02,35.689999,35.950001,35.419998,35.900002,35.365837,6484200
2017-08-03,35.970001,35.980000,35.570000,35.709999,35.178661,5726300
2017-08-04,35.860001,35.860001,35.549999,35.619999,35.090000,5182500
2017-08-07,35.610001,36.150002,35.380001,36.110001,35.572712,5380200
2017-08-08,35.959999,36.639999,35.889999,36.360001,35.818996,9655700
2017-08-09,36.130001,36.230000,35.720001,36.080002,35.543156,7888100
2017-08-10,35.950001,35.980000,34.880001,34.990002,34.469379,12533800
2017-08-11,35.160000,35.320000,34.759998,35.049999,34.528484,7746800
2017-08-14,35.439999,35.450001,34.880001,35.200001,34.676254,7192500
2017-08-15,35.240002,35.419998,35.119999,35.250000,34.725506,4588500
2017-08-16,35.230000,35.480000,35.070000,35.360001,34.833870,3976900
2017-08-17,35.500000,35.500000,34.799999,34.849998,34.331455,6698900
2017-08-18,34.830002,35.139999,34.750000,34.779999,34.262497,8746600
2017-08-21,35.130001,35.130001,34.090000,34.240002,33.730541,8190500
2017-08-22,34.369999,34.810001,34.310001,34.810001,34.292049,6177700
2017-08-23,34.619999,34.980000,34.509998,34.889999,34.370861,6326600
2017-08-24,34.860001,35.040001,34.509998,34.880001,34.361019,5778100
2017-08-25,34.980000,35.070000,34.560001,34.680000,34.163986,6885100
2017-08-28,34.750000,34.900002,34.660000,34.810001,34.292049,5075300
2017-08-29,34.480000,35.320000,34.419998,35.200001,34.676254,7118300
2017-08-30,35.139999,35.959999,35.099998,35.689999,35.158958,8288900
2017-08-31,35.849998,36.320000,35.820000,36.130001,35.592415,8591100
2017-09-01,36.200001,36.580002,36.139999,36.349998,35.809139,5122900
2017-09-05,36.189999,36.480000,35.770000,36.090000,35.553005,6315000
2017-09-06,36.080002,36.980000,36.080002,36.759998,36.213036,12965900
2017-09-07,36.950001,38.189999,36.840000,38.009998,37.444435,14055300
2017-09-08,38.040001,38.299999,37.730000,37.790001,37.227718,9075900
2017-09-11,38.040001,38.259998,38.000000,38.090000,37.523251,6122000
2017-09-12,38.070000,38.299999,37.980000,38.180000,37.611912,4259700
2017-09-13,38.000000,38.500000,38.000000,38.270000,37.700573,5622300
2017-09-14,38.240002,38.590000,38.130001,38.310001,37.739979,6603800
2017-09-15,38.270000,38.869999,38.070000,38.400002,37.828640,11121900
2017-09-18,38.299999,38.669998,38.180000,38.389999,37.818783,5636200
2017-09-19,38.500000,38.750000,38.320000,38.590000,38.015812,5215300
2017-09-20,38.669998,38.869999,38.209999,38.540001,37.966553,6424600
2017-09-21,38.549999,38.669998,38.189999,38.250000,37.680870,5715800
2017-09-22,38.130001,38.310001,38.049999,38.290001,37.720276,4866100
2017-09-25,38.220001,38.310001,37.540001,37.779999,37.217861,7420300
2017-09-26,37.849998,38.189999,37.750000,37.849998,37.286819,6132900
2017-09-27,38.029999,38.290001,37.759998,38.049999,37.483845,9377700
2017-09-28,37.439999,37.959999,37.439999,37.730000,37.168610,7734200
2017-09-29,37.730000,38.599998,37.709999,38.459999,37.887745,9965000
2017-10-02,38.509998,38.779999,38.369999,38.730000,38.153725,7243800
2017-10-03,38.779999,39.049999,38.490002,38.709999,38.134022,5107000
2017-10-04,38.799999,38.830002,38.500000,38.660000,38.084770,5630400
2017-10-05,38.759998,39.029999,38.669998,38.990002,38.409863,5452500
2017-10-06,39.049999,39.080002,38.669998,38.810001,38.232540,7466700
2017-10-09,38.799999,39.270000,38.799999,38.990002,38.409863,4983700
2017-10-10,39.020000,39.279999,38.770000,38.840000,38.262093,6012700
2017-10-11,38.849998,38.980000,38.169998,38.310001,37.739979,11038600
2017-10-12,38.310001,38.500000,38.060001,38.090000,37.523251,10045700
2017-10-13,38.349998,38.529999,38.160000,38.349998,37.779381,9421300
2017-10-16,38.290001,38.500000,37.730000,37.770000,37.208012,8646700
2017-10-17,37.759998,37.840000,37.419998,37.490002,36.932182,12012700
2017-10-18,37.680000,38.220001,37.540001,37.970001,37.405033,16937800
2017-10-19,36.480000,37.490002,36.189999,37.290001,36.735157,29099300
2017-10-20,37.340000,37.860001,37.299999,37.610001,37.050396,15105900
2017-10-23,37.660000,37.849998,36.740002,36.830002,36.281998,10374300
2017-10-24,36.509998,37.029999,36.509998,36.740002,36.193340,8533000
2017-10-25,36.660000,36.919998,36.450001,36.680000,36.134232,8030700
2017-10-26,36.740002,37.240002,36.720001,36.900002,36.350960,7635200
2017-10-27,37.070000,37.360001,36.639999,36.799999,36.252441,10880100
2017-10-30,36.860001,37.130001,36.740002,37.000000,36.449471,8118100
2017-10-31,37.110001,37.680000,37.020000,37.639999,37.079948,6722800
2017-11-01,37.849998,38.090000,37.439999,37.540001,36.981438,7092900
2017-11-02,37.490002,37.500000,36.990002,37.400002,36.843517,5350300
2017-11-03,37.439999,37.549999,37.110001,37.500000,36.942032,5716900
2017-11-06,37.380001,37.610001,37.299999,37.369999,36.813961,4361000
2017-11-07,37.599998,37.599998,37.099998,37.410000,36.853371,5646000
2017-11-08,37.299999,37.369999,36.939999,37.009998,36.459320,7095200
2017-11-09,36.259998,36.360001,35.209999,35.689999,35.158958,17006900
2017-11-10,35.509998,36.049999,35.340000,35.970001,35.434795,8329700
2017-11-13,35.700001,36.099998,35.320000,35.849998,35.316578,7269000
2017-11-14,35.709999,35.790001,35.180000,35.220001,34.695953,11468000
2017-11-15,35.029999,35.470001,34.790001,35.299999,34.774761,8120700
2017-11-16,35.369999,35.820000,35.320000,35.619999,35.090000,8140200
2017-11-17,35.639999,35.709999,35.310001,35.580002,35.050602,7542600
2017-11-20,35.619999,35.970001,35.419998,35.529999,35.001339,5981700
2017-11-21,35.720001,36.110001,35.560001,35.959999,35.424942,5888600
2017-11-22,36.049999,36.200001,35.840000,35.939999,35.405239,4576200
2017-11-24,36.070000,36.110001,35.700001,35.840000,35.306728,3122800
2017-11-27,35.880001,36.200001,35.790001,35.990002,35.454498,7221700
2017-11-28,35.990002,36.200001,35.419998,35.500000,34.971786,11335100
2017-11-29,35.419998,35.450001,33.950001,34.380001,33.868458,22063000
2017-11-30,34.480000,35.189999,34.459999,34.669998,34.154137,16415200
2017-12-01,34.380001,35.250000,34.310001,35.200001,34.676254,11535200
2017-12-04,35.580002,36.080002,35.380001,35.700001,35.168812,11130700
2017-12-05,35.939999,37.189999,35.750000,36.810001,36.262295,19264500
2017-12-06,36.639999,36.910000,36.360001,36.830002,36.281998,9009600
2017-12-07,36.720001,37.150002,36.500000,36.849998,36.301701,7625100
2017-12-08,37.250000,37.990002,37.160000,37.650002,37.089802,12423600
2017-12-11,37.509998,37.689999,37.320000,37.520000,36.961731,7072200
2017-12-12,37.439999,37.490002,37.099998,37.439999,36.882919,6313900
2017-12-13,37.459999,37.639999,37.330002,37.400002,36.843517,5901800
2017-12-14,37.410000,37.770000,37.410000,37.599998,37.040539,5456800
2017-12-15,37.720001,38.419998,37.389999,38.369999,37.799084,16277200
2017-12-18,38.500000,38.660000,38.119999,38.180000,37.611912,8092100
2017-12-19,38.150002,38.230000,37.720001,37.799999,37.237564,7871000
2017-12-20,37.869999,38.099998,37.740002,37.930000,37.365631,6551500
2017-12-21,38.110001,38.240002,37.770000,37.810001,37.247417,9619400
2017-12-22,37.689999,37.910000,37.529999,37.759998,37.198158,7603300
2017-12-26,37.790001,38.009998,37.599998,37.939999,37.375481,4537000
2017-12-27,38.070000,38.080002,37.560001,37.610001,37.050396,4244100
2017-12-28,37.459999,37.930000,37.450001,37.919998,37.355778,3398600
2017-12-29,37.820000,38.029999,37.650002,37.740002,37.178459,4652500
2018-01-02,38.169998,38.360001,37.919998,38.060001,37.493694,6997300
2018-01-03,37.990002,39.279999,37.900002,39.220001,38.636440,9134400
2018-01-04,39.419998,39.770000,38.470001,38.570000,37.996105,8958600
2018-01-05,38.849998,39.840000,38.810001,39.689999,39.099445,7290400
2018-01-08,39.549999,40.080002,39.439999,39.799999,39.207806,9714200
2018-01-09,40.099998,40.130001,39.480000,39.529999,38.941822,6215900
2018-01-10,38.869999,39.020000,37.549999,37.700001,37.139057,17416500
2018-01-11,37.840000,37.939999,37.459999,37.810001,37.247417,11090500
2018-01-12,38.000000,38.270000,37.900002,38.020000,37.454292,11992900
2018-01-16,38.070000,38.250000,37.380001,37.680000,37.119350,10718800
2018-01-17,38.000000,38.310001,37.750000,37.990002,37.424740,12245700
2018-01-18,38.209999,38.939999,38.130001,38.740002,38.163578,11113500
2018-01-19,38.750000,39.020000,38.200001,38.430000,37.858192,12724000
2018-01-22,38.360001,39.730000,38.330002,39.580002,38.991081,10715000
2018-01-23,39.590000,39.889999,39.130001,39.770000,39.178257,6944800
2018-01-24,39.970001,40.709999,39.689999,39.820000,39.227509,10736000
2018-01-25,39.930000,40.410000,39.860001,40.020000,39.424534,9070900
2018-01-26,40.310001,40.910000,39.919998,40.889999,40.281590,8522600
2018-01-29,40.590000,41.070000,40.570000,40.799999,40.192928,6372800
2018-01-30,40.720001,41.340000,40.189999,40.400002,39.798882,9022900
2018-01-31,40.480000,41.099998,40.360001,40.580002,39.976200,14509700
2018-02-01,45.500000,46.990002,45.209999,46.189999,45.502724,33290600
2018-02-02,45.160000,46.240002,44.230000,44.299999,43.640846,19255600
2018-02-05,44.020000,44.450001,42.240002,42.369999,41.739567,19100200
2018-02-06,41.720001,43.099998,41.720001,42.790001,42.153316,18686100
2018-02-07,42.669998,43.119999,42.230000,42.330002,41.700165,11379200
2018-02-08,42.500000,42.950001,41.009998,41.020000,40.409657,14996800
2018-02-09,41.500000,41.980000,40.430000,41.660000,41.040134,15976200
2018-02-12,41.950001,42.639999,41.639999,42.320000,41.690308,11821400
2018-02-13,41.990002,42.779999,41.900002,42.150002,41.522842,10415600
2018-02-14,41.830002,42.669998,41.750000,42.439999,41.808521,9930100
2018-02-15,42.680000,43.259998,42.230000,43.009998,42.370045,10402800
2018-02-16,43.160000,43.639999,42.910000,43.340000,42.695133,9396200
2018-02-20,43.110001,43.790001,43.009998,43.389999,42.744392,10947000
2018-02-21,43.520000,43.700001,43.060001,43.119999,42.478405,10393300
2018-02-22,43.160000,43.509998,42.619999,42.830002,42.192726,10575200
2018-02-23,43.270000,43.790001,42.820000,43.680000,43.030075,11158700
2018-02-26,43.799999,44.360001,43.650002,43.830002,43.177841,6402500
2018-02-27,43.820000,43.950001,43.130001,43.150002,42.507965,9243800
2018-02-28,43.220001,43.419998,42.849998,42.860001,42.222279,8825200
2018-03-01,43.009998,43.110001,42.049999,42.270000,41.641056,8040500
2018-03-02,42.599998,43.060001,42.220001,42.950001,42.310936,8070200
2018-03-05,42.790001,43.549999,42.619999,43.189999,42.547363,5506100
2018-03-06,43.540001,43.540001,42.959999,43.139999,42.498108,5324800
2018-03-07,42.970001,44.020000,42.799999,43.930000,43.276356,8126500
2018-03-08,44.160000,44.299999,43.410000,43.680000,43.030075,9297800
2018-03-09,43.759998,43.849998,43.340000,43.810001,43.158142,7800600
2018-03-12,44.029999,44.040001,43.430000,43.900002,43.246803,9189400
2018-03-13,44.139999,44.220001,42.689999,42.820000,42.182869,9934900
2018-03-14,42.970001,43.139999,42.650002,42.830002,42.192726,11663300
2018-03-15,42.820000,42.830002,42.160000,42.590000,41.956295,7598600
2018-03-16,42.619999,42.740002,42.380001,42.459999,41.828228,14194900
2018-03-19,42.230000,42.759998,41.720001,42.090000,41.463734,9410000
2018-03-20,42.080002,42.189999,41.709999,41.959999,41.335667,8000800
2018-03-21,41.869999,42.130001,41.470001,41.669998,41.049984,7658100
2018-03-22,41.240002,41.549999,40.560001,40.580002,39.976200,10974100
2018-03-23,40.570000,40.939999,39.700001,39.709999,39.119144,9244800
2018-03-26,40.299999,41.060001,39.590000,41.009998,40.399799,9796900
2018-03-27,41.150002,41.169998,39.980000,40.220001,39.621559,11795600
2018-03-28,40.130001,40.820000,39.639999,40.110001,39.513195,14336500
2018-03-29,40.439999,40.830002,39.990002,40.240002,39.641266,13438300
2018-04-02,40.040001,40.340000,38.900002,39.360001,38.774353,7721400
2018-04-03,39.470001,39.900002,39.220001,39.610001,39.020634,9671700
2018-04-04,39.099998,39.910000,39.000000,39.790001,39.197952,10205800
2018-04-05,40.110001,40.310001,39.610001,40.029999,39.434383,6190800
2018-04-06,39.660000,39.939999,39.000000,39.090000,38.508369,6019700
2018-04-09,39.209999,39.549999,38.820000,38.880001,38.301498,7607500
2018-04-10,39.299999,39.820000,39.139999,39.590000,39.000935,7480300
2018-04-11,40.410000,41.090000,39.509998,39.830002,39.237362,17644400
2018-04-12,40.270000,40.889999,39.950001,40.529999,39.926945,14002500
2018-04-13,41.060001,41.090000,39.799999,39.900002,39.306320,7340900
2018-04-16,40.220001,40.660000,39.810001,40.189999,39.592003,6629200
2018-04-17,40.389999,40.799999,40.130001,40.610001,40.005756,9474500
2018-04-18,42.849998,42.900002,41.150002,41.750000,41.128796,19386300
2018-04-19,41.529999,42.250000,41.509998,42.110001,41.483437,9700700
2018-04-20,42.279999,43.000000,42.060001,42.200001,41.572098,13731600
2018-04-23,42.349998,42.500000,41.490002,41.599998,40.981026,8673100
2018-04-24,41.849998,42.180000,40.810001,41.180000,40.567272,7316900
2018-04-25,41.110001,41.279999,40.240002,40.970001,40.360401,11161200
2018-04-26,38.840000,39.070000,38.090000,38.680000,38.104473,21446700
2018-04-27,38.680000,38.889999,37.990002,38.230000,37.661167,15960100
2018-04-30,38.290001,38.619999,37.650002,37.880001,37.316380,10620400
2018-05-01,37.750000,37.919998,37.419998,37.830002,37.267120,7301900
2018-05-02,37.830002,37.990002,37.080002,37.180000,36.626789,11027800
2018-05-03,37.000000,37.759998,36.810001,37.639999,37.079948,8942700
2018-05-04,37.330002,38.189999,37.209999,38.000000,37.434589,6359300
2018-05-07,38.080002,38.250000,37.610001,37.799999,37.237564,6773700
2018-05-08,37.730000,38.139999,37.480000,38.099998,37.533096,8953000
2018-05-09,38.299999,38.840000,38.180000,38.230000,37.661167,9597500
2018-05-10,38.389999,38.560001,38.090000,38.500000,37.927151,7215500
2018-05-11,38.380001,38.759998,38.110001,38.259998,37.690723,7455900
2018-05-14,38.150002,38.669998,38.150002,38.389999,37.818783,7462800
2018-05-15,38.119999,38.209999,37.689999,38.080002,37.513401,6747200
2018-05-16,38.000000,38.570000,37.950001,38.349998,37.779381,11002600
2018-05-17,38.230000,38.840000,38.230000,38.400002,37.828640,6370400
2018-05-18,38.299999,38.580002,38.160000,38.320000,37.749828,6736600
2018-05-21,38.490002,38.820000,38.189999,38.290001,37.720276,6599200
2018-05-22,38.400002,38.490002,37.689999,37.770000,37.208012,9142200
2018-05-23,37.610001,38.060001,37.470001,38.040001,37.473995,7347000
2018-05-24,38.029999,38.240002,37.630001,37.790001,37.227718,6256200
2018-05-25,37.840000,38.290001,37.799999,37.939999,37.375481,8736600
2018-05-29,37.730000,37.880001,37.360001,37.529999,36.971584,8306000
2018-05-30,37.779999,38.119999,37.529999,37.849998,37.286819,7908700
2018-05-31,37.779999,37.810001,37.180000,37.720001,37.158756,10710700
2018-06-01,38.060001,38.849998,37.910000,38.340000,37.769535,7831200
2018-06-04,38.470001,39.130001,38.389999,39.070000,38.488670,8115300
2018-06-05,39.230000,40.470001,39.220001,40.040001,39.444233,11216100
2018-06-06,40.070000,40.110001,39.299999,39.950001,39.355572,6986700
2018-06-07,40.060001,40.860001,39.840000,40.450001,39.848137,11570700
2018-06-08,40.259998,40.410000,39.910000,40.290001,39.690517,6067000
2018-06-11,40.270000,40.759998,40.080002,40.490002,39.887543,5208900
2018-06-12,40.630001,40.750000,40.299999,40.450001,39.848137,8575100
2018-06-13,40.250000,40.270000,38.869999,39.330002,38.744801,14044000
2018-06-14,39.520000,39.669998,38.950001,39.000000,38.419708,9353400
2018-06-15,38.919998,39.009998,38.430000,38.889999,38.311348,12891600
2018-06-18,38.500000,39.029999,38.340000,38.860001,38.281792,10077500
2018-06-19,38.320000,39.299999,38.279999,39.180000,38.597031,7190200
2018-06-20,39.480000,39.540001,38.959999,39.259998,38.675838,5750500
2018-06-21,39.220001,39.590000,37.860001,38.009998,37.444435,11587300
2018-06-22,38.070000,38.270000,37.650002,38.090000,37.523251,11808400
2018-06-25,37.720001,37.750000,36.779999,37.110001,36.557831,13382600
2018-06-26,37.130001,37.369999,36.779999,37.070000,36.518429,12451300
2018-06-27,37.020000,37.299999,36.290001,36.299999,35.759888,9898300
2018-06-28,36.180000,36.369999,35.560001,36.139999,35.602264,11381100
2018-06-29,36.279999,36.540001,36.130001,36.259998,35.720478,6335800
2018-07-02,35.910000,36.680000,35.669998,36.669998,36.124374,6144200
2018-07-03,36.889999,37.209999,36.610001,36.639999,36.094822,3704000
2018-07-05,36.799999,37.099998,36.500000,37.029999,36.479023,4653800
2018-07-06,37.200001,37.540001,36.750000,37.389999,36.833664,4188500
2018-07-09,37.540001,37.930000,37.450001,37.910000,37.345928,4660700
2018-07-10,37.080002,37.500000,36.990002,37.040001,36.488873,11250700
2018-07-11,36.930000,37.430000,36.779999,36.980000,36.429768,8442000
2018-07-12,37.459999,37.779999,37.200001,37.549999,36.991283,9711500
2018-07-13,37.549999,37.669998,37.130001,37.610001,37.050396,7785700
2018-07-16,37.660000,38.060001,37.490002,37.730000,37.168610,11576800
2018-07-17,37.430000,38.150002,37.320000,37.810001,37.247417,9931200
2018-07-18,37.779999,38.340000,37.619999,37.950001,37.385334,15840300
2018-07-19,35.169998,35.650002,33.930000,34.110001,33.602467,50978000
2018-07-20,34.419998,34.910000,34.119999,34.200001,33.691128,20035000
2018-07-23,34.060001,34.150002,33.490002,33.790001,33.287231,15380500
2018-07-24,34.020000,34.060001,33.439999,33.520000,33.021248,10916700
2018-07-25,33.419998,34.040001,33.389999,33.889999,33.385742,12141500
2018-07-26,33.810001,34.639999,33.759998,34.430000,33.917706,9728300
2018-07-27,34.630001,34.840000,33.759998,33.810001,33.306934,10161300
2018-07-30,33.720001,33.959999,33.410000,33.669998,33.169014,10093700
2018-07-31,33.770000,33.959999,33.330002,33.450001,32.952293,9976100
2018-08-01,33.349998,33.450001,32.849998,33.090000,32.597645,8981800
2018-08-02,33.000000,33.400002,32.860001,33.220001,32.725716,7235700
2018-08-03,33.369999,33.720001,33.169998,33.660000,33.159168,7154100
2018-08-06,33.660000,34.189999,33.570000,33.990002,33.484257,8119000
2018-08-07,34.110001,34.209999,33.720001,33.779999,33.277382,5722300
2018-08-08,33.779999,33.950001,33.630001,33.840000,33.336487,5504300
2018-08-09,33.860001,34.209999,33.759998,34.150002,33.641876,8115900
2018-08-10,33.549999,34.459999,33.430000,34.090000,33.582767,13198500
2018-08-13,34.110001,34.450001,33.869999,33.880001,33.375889,7984400
2018-08-14,33.910000,34.730000,33.849998,34.400002,33.888157,9201000
2018-08-15,34.049999,34.099998,33.599998,33.860001,33.356194,12381500
2018-08-16,34.060001,34.169998,33.639999,33.770000,33.267532,8534500
2018-08-17,33.820000,34.259998,33.680000,34.009998,33.503956,6982400
2018-08-20,34.200001,34.340000,33.930000,34.020000,33.513805,7843900
2018-08-21,34.060001,34.869999,34.029999,34.529999,34.016220,9788800
2018-08-22,34.410000,34.790001,34.150002,34.700001,34.183693,7463100
2018-08-23,34.779999,34.889999,34.240002,34.400002,33.888157,7989400
2018-08-24,34.560001,34.880001,34.459999,34.529999,34.016220,5412500
2018-08-27,34.619999,34.790001,34.520000,34.580002,34.065475,7464800
2018-08-28,34.740002,34.790001,34.459999,34.740002,34.223095,5877600
2018-08-29,34.779999,35.290001,34.750000,34.930000,34.410271,5934400
2018-08-30,34.840000,34.990002,34.619999,34.799999,34.282204,4985500
2018-08-31,34.720001,35.060001,34.560001,34.610001,34.095028,7944100
2018-09-04,34.400002,34.910000,34.360001,34.799999,34.282204,6743300
2018-09-05,34.639999,34.689999,34.000000,34.130001,33.622169,8820700
2018-09-06,34.080002,34.320000,33.279999,33.660000,33.159168,9240100
2018-09-07,33.400002,34.020000,33.139999,33.990002,33.484257,6445200
2018-09-10,34.139999,34.200001,33.590000,33.709999,33.208420,7787600
2018-09-11,33.810001,34.209999,33.580002,34.110001,33.602467,4970600
2018-09-12,33.980000,34.419998,33.750000,34.259998,33.750233,6035900
2018-09-13,34.430000,34.849998,34.299999,34.439999,33.927559,6716800
2018-09-14,34.500000,34.549999,33.959999,34.099998,33.592613,5376400
2018-09-17,34.029999,34.389999,34.020000,34.200001,33.691128,6722700
2018-09-18,34.209999,34.540001,34.090000,34.119999,33.612320,8724500
2018-09-19,34.009998,34.369999,34.009998,34.220001,33.710831,13455600
2018-09-20,34.279999,34.310001,33.830002,34.240002,33.730541,15877000
2018-09-21,34.320000,34.459999,33.950001,34.040001,33.533512,24875000
2018-09-24,33.830002,33.950001,33.630001,33.720001,33.218273,8746500
2018-09-25,33.570000,33.720001,32.599998,32.759998,32.272552,20479000
2018-09-26,32.709999,34.099998,32.709999,33.580002,33.080360,14007000
2018-09-27,33.570000,33.740002,33.150002,33.340000,32.843925,7374800
2018-09-28,33.209999,33.340000,32.730000,33.020000,32.528690,8467200
2018-10-01,33.099998,33.150002,32.459999,32.509998,32.026276,11990700
2018-10-02,32.500000,32.779999,32.340000,32.560001,32.075535,10174300
2018-10-03,32.770000,33.130001,32.709999,32.750000,32.262707,11075500
2018-10-04,32.660000,32.930000,32.380001,32.630001,32.144493,12293000
2018-10-05,32.650002,32.730000,32.099998,32.240002,31.760294,9361100
2018-10-08,32.169998,33.049999,32.099998,32.580002,32.095238,8036100
2018-10-09,32.560001,34.599998,32.290001,33.279999,32.784821,27415000
2018-10-10,33.090000,33.180000,31.660000,31.670000,31.198774,14292200
2018-10-11,31.780001,31.799999,30.760000,31.400000,30.932791,14477800
2018-10-12,31.920000,31.920000,31.150000,31.719999,31.248030,7910500
2018-10-15,31.540001,32.150002,31.410000,31.860001,31.385950,5036400
2018-10-16,31.719999,32.340000,31.709999,32.250000,31.770145,7111500
2018-10-17,32.230000,32.389999,31.500000,32.020000,31.543568,10845300
2018-10-18,31.889999,31.990000,31.299999,31.549999,31.080559,8705300
2018-10-19,29.469999,29.580000,28.370001,28.750000,28.322222,39779400
2018-10-22,28.469999,28.910000,28.090000,28.490000,28.066092,17677200
2018-10-23,27.750000,28.360001,27.610001,28.190001,27.770555,12577500
2018-10-24,28.110001,28.379999,27.240000,27.290001,26.883945,16309300
2018-10-25,27.660000,28.299999,27.549999,28.059999,27.642488,12239600
2018-10-26,27.240000,27.920000,26.959999,27.340000,26.933203,16691700
2018-10-29,27.719999,27.799999,26.360001,26.820000,26.420938,18291800
2018-10-30,26.900000,27.670000,26.780001,27.420000,27.012011,19994400
2018-10-31,29.299999,29.490000,27.770000,29.030001,28.598057,28518100
2018-11-01,29.080000,30.000000,29.000000,29.520000,29.080767,18717300
2018-11-02,29.520000,30.080000,29.309999,29.870001,29.425558,16427500
2018-11-05,29.910000,30.059999,29.330000,29.639999,29.198980,10724200
2018-11-06,29.590000,30.260000,29.459999,29.950001,29.504368,12821600
2018-11-07,30.090000,30.180000,29.590000,29.860001,29.415709,18347500
2018-11-08,29.740000,29.969999,29.520000,29.840000,29.396004,10837900
2018-11-09,29.620001,29.950001,29.580000,29.629999,29.189127,8713100
2018-11-12,29.580000,29.700001,28.910000,28.959999,28.529097,10966400
2018-11-13,28.799999,28.799999,27.790001,28.100000,27.681894,17743900
2018-11-14,28.200001,28.340000,27.870001,27.889999,27.475018,12131000
2018-11-15,27.799999,28.469999,27.549999,28.170000,27.750853,12345600
2018-11-16,28.000000,28.350000,27.879999,28.120001,27.701595,12513700
2018-11-19,28.020000,28.330000,27.799999,27.959999,27.543976,11562100
2018-11-20,27.700001,28.629999,27.600000,28.160000,27.740999,15882600
2018-11-21,28.540001,28.760000,28.250000,28.340000,27.918324,12092800
2018-11-23,28.180000,29.049999,28.180000,28.440001,28.016834,7229000
2018-11-26,28.799999,29.020000,28.530001,28.799999,28.371477,11018000
2018-11-27,28.580000,28.879999,28.410000,28.740000,28.312372,9823500
2018-11-28,28.799999,29.840000,28.709999,29.760000,29.317194,22025700
2018-11-29,29.570000,29.879999,29.320000,29.520000,29.080767,8839400
2018-11-30,29.469999,29.879999,29.260000,29.850000,29.405857,19709500
2018-12-03,30.170000,30.360001,29.820000,30.200001,29.750648,18952800
2018-12-04,30.059999,30.330000,29.139999,29.260000,28.824635,17330100
2018-12-06,28.879999,29.540001,28.770000,29.469999,29.031507,15521800
2018-12-07,29.430000,29.910000,28.910000,29.059999,28.627609,11785300
2018-12-10,29.160000,29.290001,28.719999,28.980000,28.548800,10646400
2018-12-11,29.400000,29.549999,28.940001,29.049999,28.617758,12570800
2018-12-12,28.500000,29.490000,28.250000,29.040001,28.607906,12840500
2018-12-13,29.200001,29.309999,28.770000,29.020000,28.588205,12261800
2018-12-14,28.790001,29.139999,28.750000,28.910000,28.479843,11101100
2018-12-17,28.780001,29.000000,28.360001,28.480000,28.056238,16640200
2018-12-18,28.559999,28.780001,28.420000,28.500000,28.075941,13869600
2018-12-19,28.490000,29.230000,28.080000,28.299999,27.878920,18442300
2018-12-20,28.200001,28.520000,27.580000,27.990000,27.573530,21710600
2018-12-21,28.020000,28.340000,26.299999,26.580000,26.184509,32178400
2018-12-24,26.549999,26.920000,26.139999,26.139999,25.751055,6216100
2018-12-26,26.350000,27.879999,26.010000,27.850000,27.435614,11503400
2018-12-27,27.480000,28.040001,27.020000,28.030001,27.612936,9769900
2018-12-28,28.110001,28.639999,28.020000,28.240000,27.819811,8781000
2018-12-31,28.379999,28.500000,27.889999,28.070000,27.652340,7629300
2019-01-02,27.650000,28.959999,27.559999,28.850000,28.420734,11190300
2019-01-03,28.629999,28.820000,28.280001,28.320000,27.898621,10803900
2019-01-04,28.600000,29.080000,28.330000,28.969999,28.538950,14593700
2019-01-07,28.959999,29.650000,28.930000,29.469999,29.031507,13419400
2019-01-08,29.740000,30.080000,29.400000,30.000000,29.553623,8179700
2019-01-09,29.990000,30.400000,29.740000,30.290001,29.839308,10607500
2019-01-10,30.129999,30.639999,30.010000,30.570000,30.115143,8741400
2019-01-11,30.150000,30.540001,29.420000,30.410000,29.957521,13390900
2019-01-14,30.180000,30.280001,29.990000,30.209999,29.760498,7523000
2019-01-15,30.299999,30.750000,30.270000,30.670000,30.213654,7154900
2019-01-16,30.660000,30.700001,30.270000,30.290001,29.839308,12725700
2019-01-17,30.150000,30.549999,30.059999,30.379999,29.927967,12818500
2019-01-18,30.610001,31.020000,30.440001,31.000000,30.538742,13839700
2019-01-22,34.340000,34.750000,32.730000,32.900002,32.410477,56378700
2019-01-23,33.400002,33.529999,32.459999,32.610001,32.124790,19280600
2019-01-24,32.700001,32.860001,32.330002,32.650002,32.164196,11974800
2019-01-25,32.950001,33.759998,32.799999,33.720001,33.218273,17028800
2019-01-28,33.490002,34.230000,33.400002,34.020000,33.513805,22325500
2019-01-29,34.369999,34.430000,33.540001,33.689999,33.188721,19304100
2019-01-30,33.970001,34.320000,32.880001,34.080002,33.572918,27338600
2019-01-31,33.759998,33.990002,32.770000,33.650002,33.149319,24996900
2019-02-01,33.750000,34.480000,33.630001,34.310001,33.799496,19113800
2019-02-04,34.549999,35.200001,34.200001,35.049999,34.528484,19798500
2019-02-05,35.270000,35.529999,35.070000,35.330002,34.804317,13738200
2019-02-06,35.119999,35.709999,35.000000,35.480000,34.952080,11340000
2019-02-07,35.220001,35.389999,34.820000,35.250000,34.725506,9211000
2019-02-08,35.000000,35.320000,34.910000,35.259998,34.735359,10228000
2019-02-11,35.480000,35.900002,35.320000,35.590000,35.060452,9638400
2019-02-12,35.590000,36.270000,35.209999,36.189999,35.651524,12684800
2019-02-13,36.209999,36.540001,36.160000,36.259998,35.720478,7378000
2019-02-14,36.040001,36.560001,35.980000,36.320000,35.779587,6874500
2019-02-15,36.610001,36.830002,36.419998,36.580002,36.035717,10273100
2019-02-19,36.549999,37.130001,36.459999,37.049999,36.498722,12312100
2019-02-20,37.020000,37.250000,36.689999,36.740002,36.193340,11698700
2019-02-21,36.630001,37.130001,36.500000,36.980000,36.429768,8151600
2019-02-22,36.990002,37.500000,36.970001,37.490002,36.932182,6820600
2019-02-25,37.750000,37.889999,37.310001,37.340000,36.784405,10147800
2019-02-26,37.340000,37.549999,37.060001,37.380001,36.823814,12788000
2019-02-27,37.450001,38.020000,37.279999,37.580002,37.020840,10571100
2019-02-28,37.500000,37.500000,37.099998,37.150002,36.734089,7462700
2019-03-01,38.360001,39.139999,37.180000,37.349998,36.931843,17271800
2019-03-04,37.480000,37.580002,36.700001,37.250000,36.832966,11304000
2019-03-05,37.200001,37.490002,37.110001,37.119999,36.704422,12174400
2019-03-06,37.139999,37.540001,36.799999,36.810001,36.397892,10885400
2019-03-07,36.730000,36.779999,36.080002,36.209999,35.804611,14928000
2019-03-08,36.020000,36.020000,35.509998,35.889999,35.488194,16417000
2019-03-11,35.930000,36.340000,35.820000,36.250000,35.844162,15306400
2019-03-12,36.439999,36.490002,36.110001,36.279999,35.873825,10660900
2019-03-13,36.299999,36.740002,36.160000,36.459999,36.051811,13247800
2019-03-14,36.380001,36.619999,36.169998,36.349998,35.943043,10560900
2019-03-15,36.349998,36.580002,36.020000,36.299999,35.893604,24454100
2019-03-18,36.310001,36.580002,36.180000,36.270000,35.863941,9328100
2019-03-19,36.459999,37.200001,36.400002,36.869999,36.457218,14686900
2019-03-20,36.759998,36.910000,36.570000,36.700001,36.289127,11905400
2019-03-21,36.740002,37.389999,36.580002,37.200001,36.783527,10661100
2019-03-22,37.060001,37.439999,36.490002,36.650002,36.239685,8449100
2019-03-25,36.590000,36.810001,36.279999,36.720001,36.308899,5482100
2019-03-26,36.919998,37.090000,36.639999,36.900002,36.486889,7926700
2019-03-27,36.950001,37.090000,36.580002,36.830002,36.417667,8223000
2019-03-28,36.919998,37.430000,36.619999,36.779999,36.368229,9806800
2019-03-29,36.950001,37.169998,36.869999,37.139999,36.724197,8636400
2019-04-01,37.410000,37.770000,37.360001,37.680000,37.258152,6664100
2019-04-02,37.799999,38.180000,37.619999,37.919998,37.495464,7396500
2019-04-03,38.180000,38.240002,37.860001,37.990002,37.564682,10033500
2019-04-04,37.880001,38.180000,37.830002,38.049999,37.624008,6372500
2019-04-05,38.110001,38.330002,37.740002,37.840000,37.416359,7907400
2019-04-08,37.790001,37.990002,37.700001,37.810001,37.386700,6982600
2019-04-09,37.639999,37.860001,37.470001,37.750000,37.327370,7140800
2019-04-10,37.860001,37.860001,37.459999,37.720001,37.297707,7057400
2019-04-11,37.630001,37.630001,35.889999,36.320000,35.913380,19483300
2019-04-12,36.590000,36.720001,35.990002,36.169998,35.765053,14267400
2019-04-15,36.250000,36.470001,36.020000,36.230000,35.824390,9688300
2019-04-16,36.340000,36.570000,36.279999,36.389999,35.982594,7046300
2019-04-17,36.459999,36.750000,35.720001,35.970001,35.567299,12860000
2019-04-18,36.090000,36.169998,35.439999,35.980000,35.577187,12335000
2019-04-22,35.919998,36.230000,35.610001,36.150002,35.745285,7243900
2019-04-23,36.070000,36.790001,36.040001,36.669998,36.259457,14144300
2019-04-24,38.000000,38.740002,37.560001,38.520000,38.088749,21206400
2019-04-25,38.360001,38.509998,37.740002,38.110001,37.683338,7937300
2019-04-26,38.250000,38.490002,38.020000,38.360001,37.930542,9212000
2019-04-29,38.349998,38.380001,37.880001,38.250000,37.821774,8028100
2019-04-30,38.270000,38.799999,37.959999,38.750000,38.316174,8321400
2019-05-01,38.779999,38.939999,37.770000,37.799999,37.376808,9686500
2019-05-02,37.790001,38.180000,37.529999,37.590000,37.169159,10378400
2019-05-03,37.950001,38.299999,37.860001,38.279999,37.851437,8775000
2019-05-06,37.639999,38.060001,37.590000,37.880001,37.455917,6504700
2019-05-07,37.610001,37.849998,37.360001,37.680000,37.258152,7808500
2019-05-08,37.680000,37.740002,37.290001,37.540001,37.119724,5943700
2019-05-09,37.250000,37.849998,36.959999,37.619999,37.198826,6454700
2019-05-10,37.480000,37.580002,36.709999,37.380001,36.961510,8920100
2019-05-13,36.549999,36.740002,35.730000,35.869999,35.468414,12425800
2019-05-14,35.950001,37.259998,35.869999,36.799999,36.388000,11137800
2019-05-15,36.630001,37.180000,36.520000,37.040001,36.625317,7461000
2019-05-16,37.139999,37.639999,37.040001,37.270000,36.852741,8123300
2019-05-17,36.889999,37.270000,36.599998,36.900002,36.486889,9273600
2019-05-20,36.500000,36.950001,36.410000,36.560001,36.150692,7379300
2019-05-21,36.709999,36.869999,36.439999,36.580002,36.170467,6438600
2019-05-22,36.470001,36.590000,36.130001,36.310001,35.903492,7066300
2019-05-23,36.060001,36.290001,35.590000,35.950001,35.547520,8753700
2019-05-24,36.139999,36.380001,35.810001,36.130001,35.725506,5298700
2019-05-28,36.230000,36.680000,36.139999,36.220001,35.814503,7201400
2019-05-29,35.959999,36.230000,35.779999,36.099998,35.695839,7874300
2019-05-30,36.090000,36.700001,35.980000,36.380001,36.112759,6490000
2019-05-31,36.029999,36.139999,35.740002,35.930000,35.666061,7261400
2019-06-03,35.849998,36.090000,35.450001,35.619999,35.358337,9491500
2019-06-04,35.869999,36.810001,35.849998,36.540001,36.271580,10785000
2019-06-05,36.860001,36.869999,36.040001,36.560001,36.291435,11404100
2019-06-06,36.549999,36.820000,36.450001,36.810001,36.539600,5982300
2019-06-07,36.930000,38.000000,36.910000,37.509998,37.234451,11904800
2019-06-10,37.660000,38.400002,37.549999,38.119999,37.839973,8884300
2019-06-11,38.410000,38.590000,37.849998,38.230000,37.949165,7350500
2019-06-12,38.099998,39.060001,38.029999,39.020000,38.733360,9266500
2019-06-13,39.119999,39.439999,38.919998,39.000000,38.713509,9103300
2019-06-14,39.139999,39.320000,38.860001,38.910000,38.624172,7550100
2019-06-17,38.939999,39.320000,38.720001,39.009998,38.723434,11564700
2019-06-18,39.400002,39.930000,39.240002,39.669998,39.378586,9352800
2019-06-19,39.779999,40.220001,39.599998,40.130001,39.835209,6520000
2019-06-20,40.540001,40.549999,39.880001,39.919998,39.626751,11852200
2019-06-21,39.919998,40.209999,39.630001,40.049999,39.755795,20769600
2019-06-24,40.020000,40.180000,39.639999,39.709999,39.418293,7365600
2019-06-25,39.779999,39.779999,38.919998,39.020000,38.733360,7834000
2019-06-26,39.130001,39.369999,39.049999,39.200001,38.912041,4739400
2019-06-27,39.349998,39.580002,39.259998,39.290001,39.001381,8254200
2019-06-28,39.330002,39.560001,39.110001,39.500000,39.209835,14763400
2019-07-01,39.970001,39.990002,39.580002,39.889999,39.596973,4900000
2019-07-02,39.910000,40.189999,39.709999,40.080002,39.785576,6368100
2019-07-03,40.130001,40.230000,39.849998,39.900002,39.606903,3419500
2019-07-05,39.759998,40.000000,39.459999,39.799999,39.507633,3862400
2019-07-08,39.709999,39.799999,39.400002,39.540001,39.249542,5477000
2019-07-09,39.580002,39.980000,39.520000,39.939999,39.646606,5962900
2019-07-10,40.189999,40.380001,39.660000,40.009998,39.716087,5443700
2019-07-11,39.860001,39.939999,39.279999,39.599998,39.309101,5831200
2019-07-12,39.700001,40.099998,39.599998,40.060001,39.765724,5286700
2019-07-15,40.090000,40.320000,39.740002,40.270000,39.974182,5660400
2019-07-16,40.110001,40.169998,39.630001,39.919998,39.626751,7612000
2019-07-17,39.990002,41.110001,38.930000,39.029999,38.743286,15260600
2019-07-18,41.110001,42.000000,39.020000,39.770000,39.477856,27081600
2019-07-19,39.849998,40.330002,39.470001,40.209999,39.914619,13045800
2019-07-22,40.259998,41.070000,40.180000,40.669998,40.371239,9627200
2019-07-23,40.880001,41.160000,40.680000,41.029999,40.728596,8740500
2019-07-24,40.869999,41.180000,40.779999,41.029999,40.728596,6391500
2019-07-25,41.040001,41.150002,40.740002,40.810001,40.510216,5249000
2019-07-26,40.930000,41.389999,40.820000,41.230000,40.927128,8385600
2019-07-29,41.279999,41.650002,41.119999,41.570000,41.264629,7852000
2019-07-30,41.299999,41.500000,41.070000,41.380001,41.076031,6328000
2019-07-31,41.299999,41.540001,40.630001,41.189999,40.887421,8815000
2019-08-01,41.360001,41.990002,40.779999,41.099998,40.798080,10690100
2019-08-02,40.900002,40.959999,40.259998,40.580002,40.281902,6246400
2019-08-05,40.000000,40.160000,38.540001,38.810001,38.524906,7702800
2019-08-06,39.209999,39.730000,38.880001,39.689999,39.398441,8461700
2019-08-07,39.220001,39.810001,38.849998,39.720001,39.428223,5576500
2019-08-08,40.000000,41.259998,39.959999,41.250000,40.946983,6915800
2019-08-09,41.000000,41.080002,40.189999,40.310001,40.013889,6291100
2019-08-12,39.970001,40.049999,39.419998,39.740002,39.448074,4205000
2019-08-13,39.910000,41.029999,39.830002,40.980000,40.678967,5615100
2019-08-14,40.090000,40.380001,39.549999,39.639999,39.348808,7416400
2019-08-15,39.900002,39.959999,39.049999,39.439999,39.150280,6698100
2019-08-16,39.810001,40.070000,39.630001,40.020000,39.726017,4102800
2019-08-19,40.560001,40.790001,40.320000,40.389999,40.093300,6552100
2019-08-20,40.240002,40.349998,39.980000,40.029999,39.735943,5346800
2019-08-21,40.470001,40.529999,40.230000,40.380001,40.083374,5554900
2019-08-22,40.560001,40.570000,39.799999,40.000000,39.706161,4950300
2019-08-23,39.779999,39.790001,38.549999,38.700001,38.415714,7527000
2019-08-26,39.139999,39.419998,38.900002,39.400002,39.110573,6570200
2019-08-27,39.509998,39.759998,38.709999,39.000000,38.713509,9124900
2019-08-28,38.869999,40.259998,38.779999,40.090000,39.795502,10721200
2019-08-29,40.509998,40.810001,40.279999,40.529999,40.232269,7188200
2019-08-30,40.730000,40.740002,40.180000,40.290001,40.132660,4472700
2019-09-03,40.049999,40.380001,39.599998,39.740002,39.584808,5513600
2019-09-04,39.669998,39.880001,39.029999,39.639999,39.485199,7488700
2019-09-05,40.020000,40.860001,39.939999,40.799999,40.640667,7084000
2019-09-06,40.939999,41.080002,40.340000,40.369999,40.212345,5724000
2019-09-09,40.529999,41.410000,40.400002,41.400002,41.238327,9028900
2019-09-10,41.049999,41.189999,40.029999,40.270000,40.112740,6707600
2019-09-11,40.180000,40.259998,39.669998,39.900002,39.744186,6195900
2019-09-12,40.160000,40.540001,39.950001,40.290001,40.132660,4927000
2019-09-13,40.410000,40.799999,40.209999,40.369999,40.212345,5438100
2019-09-16,39.750000,40.389999,39.669998,40.299999,40.142620,5754400
2019-09-17,40.180000,40.660000,39.830002,40.529999,40.371723,6358800
2019-09-18,40.529999,40.619999,39.779999,40.360001,40.202389,4307900
2019-09-19,40.400002,40.799999,40.330002,40.400002,40.242233,4005200
2019-09-20,40.549999,40.869999,40.139999,40.360001,40.202389,12088600
2019-09-23,40.369999,40.480000,40.020000,40.240002,40.082859,3871200
2019-09-24,40.380001,40.669998,39.459999,39.560001,39.405514,7437500
2019-09-25,38.919998,39.500000,38.349998,39.240002,39.086761,12200900
2019-09-26,39.090000,39.480000,38.849998,38.919998,38.768009,7360700
2019-09-27,38.709999,38.889999,38.099998,38.369999,38.220158,10636800
2019-09-30,38.570000,39.049999,38.410000,38.980000,38.827774,6149200
2019-10-01,38.990002,39.470001,38.470001,38.540001,38.389496,5645100
2019-10-02,38.349998,38.570000,37.990002,38.169998,38.020939,6159400
2019-10-03,38.049999,38.049999,37.450001,37.950001,37.801800,7178300
2019-10-04,38.090000,38.380001,37.959999,38.310001,38.160393,4602400
2019-10-07,38.040001,38.189999,37.759998,37.820000,37.672306,6060400
2019-10-08,37.470001,37.730000,37.230000,37.320000,37.174259,7128600
2019-10-09,37.619999,38.000000,37.520000,37.849998,37.702187,6792800
2019-10-10,37.770000,38.259998,37.759998,37.930000,37.781876,4984400
2019-10-11,38.430000,38.990002,38.430000,38.549999,38.399456,5047000
2019-10-14,38.540001,38.630001,38.340000,38.360001,38.210197,6894700
2019-10-15,38.369999,39.040001,38.349998,38.880001,38.728168,4792100
2019-10-16,38.639999,39.189999,38.590000,38.919998,38.768009,5314800
2019-10-17,39.160000,39.380001,38.990002,39.090000,38.937347,5684500
2019-10-18,39.209999,39.349998,38.740002,38.820000,38.668400,6274300
2019-10-21,38.959999,39.299999,38.919998,39.259998,39.106682,4786900
2019-10-22,39.230000,39.360001,38.880001,38.939999,38.787930,5295700
2019-10-23,38.669998,39.330002,38.360001,39.200001,39.046917,6817800
2019-10-24,35.770000,36.650002,35.189999,35.619999,35.480896,19482100
2019-10-25,35.549999,36.000000,35.400002,35.840000,35.700039,14034300
2019-10-28,35.820000,36.250000,35.820000,35.939999,35.799648,7941700
2019-10-29,35.900002,36.270000,35.720001,36.110001,35.968987,8275400
2019-10-30,36.150002,36.189999,35.689999,35.860001,35.719959,5435300
2019-10-31,35.689999,35.860001,35.130001,35.250000,35.112343,6921500
2019-11-01,35.500000,35.590000,35.090000,35.250000,35.112343,8236500
2019-11-04,35.250000,35.520000,35.209999,35.410000,35.271717,7120100
2019-11-05,35.500000,35.759998,35.310001,35.480000,35.341442,6434700
2019-11-06,35.630001,35.669998,35.270000,35.500000,35.361366,9225800
2019-11-07,35.509998,35.619999,34.779999,34.889999,34.753746,10966200
2019-11-08,34.740002,35.259998,34.680000,35.139999,35.002773,10560700
2019-11-11,35.020000,35.310001,34.930000,35.250000,35.112343,3930600
2019-11-12,35.290001,35.369999,34.970001,35.070000,34.933044,6182600
2019-11-13,34.849998,34.930000,34.540001,34.639999,34.504723,6190800
2019-11-14,34.560001,35.099998,34.520000,34.959999,34.823475,6029200
2019-11-15,35.380001,35.580002,35.189999,35.270000,35.132263,6301800
2019-11-18,35.139999,35.400002,35.000000,35.099998,34.962925,7639100
2019-11-19,35.220001,35.410000,34.980000,35.060001,34.923084,5307000
2019-11-20,35.020000,35.250000,34.740002,34.860001,34.723866,9520400
2019-11-21,34.919998,35.150002,34.849998,34.939999,34.803551,5660400
2019-11-22,34.959999,35.230000,34.770000,35.119999,34.982849,6165800
2019-11-25,36.490002,36.529999,35.340000,35.849998,35.709999,14172100
2019-11-26,35.669998,35.900002,35.419998,35.750000,35.610390,8245400
2019-11-27,35.799999,36.020000,35.689999,35.849998,35.709999,7534400
2019-11-29,35.689999,35.849998,35.459999,35.520000,35.520000,3128900
2019-12-02,35.450001,35.619999,34.810001,34.900002,34.900002,10174400
2019-12-03,34.599998,34.910000,34.459999,34.750000,34.750000,7311400
2019-12-04,34.810001,35.240002,34.810001,34.970001,34.970001,7517900
2019-12-05,34.939999,35.090000,34.770000,34.790001,34.790001,8119400
2019-12-06,35.130001,35.220001,34.830002,34.860001,34.860001,6547900
2019-12-09,34.849998,34.919998,34.560001,34.570000,34.570000,7757000
2019-12-10,34.669998,35.000000,34.660000,34.720001,34.720001,6290700
2019-12-11,34.700001,34.990002,34.680000,34.919998,34.919998,7420700
2019-12-12,34.860001,35.459999,34.860001,35.310001,35.310001,5800300
2019-12-13,35.360001,35.770000,35.259998,35.480000,35.480000,6952200
2019-12-16,35.570000,35.770000,35.389999,35.400002,35.400002,7240900
2019-12-17,35.439999,35.950001,35.270000,35.900002,35.900002,13048600
2019-12-18,35.840000,35.919998,35.330002,35.639999,35.639999,12129100
2019-12-19,35.520000,36.119999,35.520000,36.040001,36.040001,7660000
2019-12-20,36.020000,36.340000,35.919998,36.189999,36.189999,17421600
2019-12-23,36.220001,36.490002,36.169998,36.209999,36.209999,5397900
2019-12-24,36.209999,36.279999,36.099998,36.209999,36.209999,2129200
2019-12-26,36.349998,36.520000,36.189999,36.250000,36.250000,4081900
2019-12-27,36.389999,36.400002,35.990002,36.070000,36.070000,6606900
2019-12-30,36.169998,36.209999,35.709999,35.799999,35.799999,6535800
2019-12-31,35.810001,36.119999,35.540001,36.110001,36.110001,7437700
2020-01-02,36.410000,36.500000,36.139999,36.299999,36.299999,4979300
2020-01-03,35.919998,36.099998,35.779999,35.959999,35.959999,3960900
2020-01-06,35.779999,35.820000,35.459999,35.779999,35.779999,5866000
2020-01-07,35.669998,35.700001,35.349998,35.619999,35.619999,6867400
2020-01-08,35.709999,36.080002,35.570000,35.599998,35.599998,6072600
2020-01-09,35.139999,35.450001,34.970001,35.180000,35.180000,10787300
2020-01-10,35.209999,35.230000,34.790001,34.889999,34.889999,5664400
2020-01-13,34.849998,34.889999,34.560001,34.730000,34.730000,7987600
2020-01-14,34.669998,35.369999,34.509998,35.349998,35.349998,7227300
2020-01-15,35.430000,35.720001,35.049999,35.330002,35.330002,10966000
2020-01-16,35.389999,35.990002,35.270000,35.919998,35.919998,6955900
2020-01-17,35.320000,35.900002,35.279999,35.820000,35.820000,12082300
2020-01-21,35.599998,35.860001,35.470001,35.720001,35.720001,6925200
2020-01-22,35.810001,36.070000,35.630001,35.889999,35.889999,8023300
2020-01-23,35.820000,35.980000,35.549999,35.610001,35.610001,7980200
2020-01-24,35.790001,35.790001,35.099998,35.360001,35.360001,9243600
2020-01-27,34.790001,35.740002,34.750000,35.480000,35.480000,10529200
2020-01-28,35.610001,36.450001,35.490002,36.209999,36.209999,15161800
2020-01-29,35.060001,35.529999,34.349998,34.580002,34.580002,21462300
2020-01-30,34.360001,35.139999,34.250000,35.060001,35.060001,12420000
2020-01-31,34.860001,35.029999,33.529999,33.560001,33.560001,18541300
2020-02-03,33.750000,34.529999,33.709999,34.389999,34.389999,14939600
2020-02-04,35.099998,39.250000,34.330002,37.410000,37.410000,46298200
2020-02-05,36.860001,37.450001,36.610001,37.130001,37.130001,25896300
2020-02-06,37.730000,39.040001,37.529999,38.000000,38.000000,24981600
2020-02-07,35.830002,36.869999,35.799999,36.200001,36.200001,18990500
2020-02-10,36.180000,36.230000,35.490002,36.020000,36.020000,11638100
2020-02-11,36.200001,36.669998,36.060001,36.439999,36.439999,9379700
2020-02-12,36.639999,37.500000,36.619999,37.150002,37.150002,11006092
